$date
	Fri Aug 13 16:45:54 2021
$end
$version
	ModelSim Version 2019.4
$end
$timescale
	1ns
$end

$scope module testbench $end
$var wire 1 ! indata [31] $end
$var wire 1 " indata [30] $end
$var wire 1 # indata [29] $end
$var wire 1 $ indata [28] $end
$var wire 1 % indata [27] $end
$var wire 1 & indata [26] $end
$var wire 1 ' indata [25] $end
$var wire 1 ( indata [24] $end
$var wire 1 ) indata [23] $end
$var wire 1 * indata [22] $end
$var wire 1 + indata [21] $end
$var wire 1 , indata [20] $end
$var wire 1 - indata [19] $end
$var wire 1 . indata [18] $end
$var wire 1 / indata [17] $end
$var wire 1 0 indata [16] $end
$var wire 1 1 indata [15] $end
$var wire 1 2 indata [14] $end
$var wire 1 3 indata [13] $end
$var wire 1 4 indata [12] $end
$var wire 1 5 indata [11] $end
$var wire 1 6 indata [10] $end
$var wire 1 7 indata [9] $end
$var wire 1 8 indata [8] $end
$var wire 1 9 indata [7] $end
$var wire 1 : indata [6] $end
$var wire 1 ; indata [5] $end
$var wire 1 < indata [4] $end
$var wire 1 = indata [3] $end
$var wire 1 > indata [2] $end
$var wire 1 ? indata [1] $end
$var wire 1 @ indata [0] $end
$var wire 1 A inexp [31] $end
$var wire 1 B inexp [30] $end
$var wire 1 C inexp [29] $end
$var wire 1 D inexp [28] $end
$var wire 1 E inexp [27] $end
$var wire 1 F inexp [26] $end
$var wire 1 G inexp [25] $end
$var wire 1 H inexp [24] $end
$var wire 1 I inexp [23] $end
$var wire 1 J inexp [22] $end
$var wire 1 K inexp [21] $end
$var wire 1 L inexp [20] $end
$var wire 1 M inexp [19] $end
$var wire 1 N inexp [18] $end
$var wire 1 O inexp [17] $end
$var wire 1 P inexp [16] $end
$var wire 1 Q inexp [15] $end
$var wire 1 R inexp [14] $end
$var wire 1 S inexp [13] $end
$var wire 1 T inexp [12] $end
$var wire 1 U inexp [11] $end
$var wire 1 V inexp [10] $end
$var wire 1 W inexp [9] $end
$var wire 1 X inexp [8] $end
$var wire 1 Y inexp [7] $end
$var wire 1 Z inexp [6] $end
$var wire 1 [ inexp [5] $end
$var wire 1 \ inexp [4] $end
$var wire 1 ] inexp [3] $end
$var wire 1 ^ inexp [2] $end
$var wire 1 _ inexp [1] $end
$var wire 1 ` inexp [0] $end
$var wire 1 a inmod [31] $end
$var wire 1 b inmod [30] $end
$var wire 1 c inmod [29] $end
$var wire 1 d inmod [28] $end
$var wire 1 e inmod [27] $end
$var wire 1 f inmod [26] $end
$var wire 1 g inmod [25] $end
$var wire 1 h inmod [24] $end
$var wire 1 i inmod [23] $end
$var wire 1 j inmod [22] $end
$var wire 1 k inmod [21] $end
$var wire 1 l inmod [20] $end
$var wire 1 m inmod [19] $end
$var wire 1 n inmod [18] $end
$var wire 1 o inmod [17] $end
$var wire 1 p inmod [16] $end
$var wire 1 q inmod [15] $end
$var wire 1 r inmod [14] $end
$var wire 1 s inmod [13] $end
$var wire 1 t inmod [12] $end
$var wire 1 u inmod [11] $end
$var wire 1 v inmod [10] $end
$var wire 1 w inmod [9] $end
$var wire 1 x inmod [8] $end
$var wire 1 y inmod [7] $end
$var wire 1 z inmod [6] $end
$var wire 1 { inmod [5] $end
$var wire 1 | inmod [4] $end
$var wire 1 } inmod [3] $end
$var wire 1 ~ inmod [2] $end
$var wire 1 !! inmod [1] $end
$var wire 1 "! inmod [0] $end
$var wire 1 #! cypher [31] $end
$var wire 1 $! cypher [30] $end
$var wire 1 %! cypher [29] $end
$var wire 1 &! cypher [28] $end
$var wire 1 '! cypher [27] $end
$var wire 1 (! cypher [26] $end
$var wire 1 )! cypher [25] $end
$var wire 1 *! cypher [24] $end
$var wire 1 +! cypher [23] $end
$var wire 1 ,! cypher [22] $end
$var wire 1 -! cypher [21] $end
$var wire 1 .! cypher [20] $end
$var wire 1 /! cypher [19] $end
$var wire 1 0! cypher [18] $end
$var wire 1 1! cypher [17] $end
$var wire 1 2! cypher [16] $end
$var wire 1 3! cypher [15] $end
$var wire 1 4! cypher [14] $end
$var wire 1 5! cypher [13] $end
$var wire 1 6! cypher [12] $end
$var wire 1 7! cypher [11] $end
$var wire 1 8! cypher [10] $end
$var wire 1 9! cypher [9] $end
$var wire 1 :! cypher [8] $end
$var wire 1 ;! cypher [7] $end
$var wire 1 <! cypher [6] $end
$var wire 1 =! cypher [5] $end
$var wire 1 >! cypher [4] $end
$var wire 1 ?! cypher [3] $end
$var wire 1 @! cypher [2] $end
$var wire 1 A! cypher [1] $end
$var wire 1 B! cypher [0] $end
$var wire 1 C! clk $end
$var wire 1 D! ds $end
$var wire 1 E! reset $end
$var wire 1 F! ready $end

$scope module uut $end
$var wire 1 ! indata [31] $end
$var wire 1 " indata [30] $end
$var wire 1 # indata [29] $end
$var wire 1 $ indata [28] $end
$var wire 1 % indata [27] $end
$var wire 1 & indata [26] $end
$var wire 1 ' indata [25] $end
$var wire 1 ( indata [24] $end
$var wire 1 ) indata [23] $end
$var wire 1 * indata [22] $end
$var wire 1 + indata [21] $end
$var wire 1 , indata [20] $end
$var wire 1 - indata [19] $end
$var wire 1 . indata [18] $end
$var wire 1 / indata [17] $end
$var wire 1 0 indata [16] $end
$var wire 1 1 indata [15] $end
$var wire 1 2 indata [14] $end
$var wire 1 3 indata [13] $end
$var wire 1 4 indata [12] $end
$var wire 1 5 indata [11] $end
$var wire 1 6 indata [10] $end
$var wire 1 7 indata [9] $end
$var wire 1 8 indata [8] $end
$var wire 1 9 indata [7] $end
$var wire 1 : indata [6] $end
$var wire 1 ; indata [5] $end
$var wire 1 < indata [4] $end
$var wire 1 = indata [3] $end
$var wire 1 > indata [2] $end
$var wire 1 ? indata [1] $end
$var wire 1 @ indata [0] $end
$var wire 1 A inExp [31] $end
$var wire 1 B inExp [30] $end
$var wire 1 C inExp [29] $end
$var wire 1 D inExp [28] $end
$var wire 1 E inExp [27] $end
$var wire 1 F inExp [26] $end
$var wire 1 G inExp [25] $end
$var wire 1 H inExp [24] $end
$var wire 1 I inExp [23] $end
$var wire 1 J inExp [22] $end
$var wire 1 K inExp [21] $end
$var wire 1 L inExp [20] $end
$var wire 1 M inExp [19] $end
$var wire 1 N inExp [18] $end
$var wire 1 O inExp [17] $end
$var wire 1 P inExp [16] $end
$var wire 1 Q inExp [15] $end
$var wire 1 R inExp [14] $end
$var wire 1 S inExp [13] $end
$var wire 1 T inExp [12] $end
$var wire 1 U inExp [11] $end
$var wire 1 V inExp [10] $end
$var wire 1 W inExp [9] $end
$var wire 1 X inExp [8] $end
$var wire 1 Y inExp [7] $end
$var wire 1 Z inExp [6] $end
$var wire 1 [ inExp [5] $end
$var wire 1 \ inExp [4] $end
$var wire 1 ] inExp [3] $end
$var wire 1 ^ inExp [2] $end
$var wire 1 _ inExp [1] $end
$var wire 1 ` inExp [0] $end
$var wire 1 a inMod [31] $end
$var wire 1 b inMod [30] $end
$var wire 1 c inMod [29] $end
$var wire 1 d inMod [28] $end
$var wire 1 e inMod [27] $end
$var wire 1 f inMod [26] $end
$var wire 1 g inMod [25] $end
$var wire 1 h inMod [24] $end
$var wire 1 i inMod [23] $end
$var wire 1 j inMod [22] $end
$var wire 1 k inMod [21] $end
$var wire 1 l inMod [20] $end
$var wire 1 m inMod [19] $end
$var wire 1 n inMod [18] $end
$var wire 1 o inMod [17] $end
$var wire 1 p inMod [16] $end
$var wire 1 q inMod [15] $end
$var wire 1 r inMod [14] $end
$var wire 1 s inMod [13] $end
$var wire 1 t inMod [12] $end
$var wire 1 u inMod [11] $end
$var wire 1 v inMod [10] $end
$var wire 1 w inMod [9] $end
$var wire 1 x inMod [8] $end
$var wire 1 y inMod [7] $end
$var wire 1 z inMod [6] $end
$var wire 1 { inMod [5] $end
$var wire 1 | inMod [4] $end
$var wire 1 } inMod [3] $end
$var wire 1 ~ inMod [2] $end
$var wire 1 !! inMod [1] $end
$var wire 1 "! inMod [0] $end
$var wire 1 #! cypher [31] $end
$var wire 1 $! cypher [30] $end
$var wire 1 %! cypher [29] $end
$var wire 1 &! cypher [28] $end
$var wire 1 '! cypher [27] $end
$var wire 1 (! cypher [26] $end
$var wire 1 )! cypher [25] $end
$var wire 1 *! cypher [24] $end
$var wire 1 +! cypher [23] $end
$var wire 1 ,! cypher [22] $end
$var wire 1 -! cypher [21] $end
$var wire 1 .! cypher [20] $end
$var wire 1 /! cypher [19] $end
$var wire 1 0! cypher [18] $end
$var wire 1 1! cypher [17] $end
$var wire 1 2! cypher [16] $end
$var wire 1 3! cypher [15] $end
$var wire 1 4! cypher [14] $end
$var wire 1 5! cypher [13] $end
$var wire 1 6! cypher [12] $end
$var wire 1 7! cypher [11] $end
$var wire 1 8! cypher [10] $end
$var wire 1 9! cypher [9] $end
$var wire 1 :! cypher [8] $end
$var wire 1 ;! cypher [7] $end
$var wire 1 <! cypher [6] $end
$var wire 1 =! cypher [5] $end
$var wire 1 >! cypher [4] $end
$var wire 1 ?! cypher [3] $end
$var wire 1 @! cypher [2] $end
$var wire 1 A! cypher [1] $end
$var wire 1 B! cypher [0] $end
$var wire 1 C! clk $end
$var wire 1 D! ds $end
$var wire 1 E! reset $end
$var wire 1 F! ready $end
$var wire 1 G! modreg [31] $end
$var wire 1 H! modreg [30] $end
$var wire 1 I! modreg [29] $end
$var wire 1 J! modreg [28] $end
$var wire 1 K! modreg [27] $end
$var wire 1 L! modreg [26] $end
$var wire 1 M! modreg [25] $end
$var wire 1 N! modreg [24] $end
$var wire 1 O! modreg [23] $end
$var wire 1 P! modreg [22] $end
$var wire 1 Q! modreg [21] $end
$var wire 1 R! modreg [20] $end
$var wire 1 S! modreg [19] $end
$var wire 1 T! modreg [18] $end
$var wire 1 U! modreg [17] $end
$var wire 1 V! modreg [16] $end
$var wire 1 W! modreg [15] $end
$var wire 1 X! modreg [14] $end
$var wire 1 Y! modreg [13] $end
$var wire 1 Z! modreg [12] $end
$var wire 1 [! modreg [11] $end
$var wire 1 \! modreg [10] $end
$var wire 1 ]! modreg [9] $end
$var wire 1 ^! modreg [8] $end
$var wire 1 _! modreg [7] $end
$var wire 1 `! modreg [6] $end
$var wire 1 a! modreg [5] $end
$var wire 1 b! modreg [4] $end
$var wire 1 c! modreg [3] $end
$var wire 1 d! modreg [2] $end
$var wire 1 e! modreg [1] $end
$var wire 1 f! modreg [0] $end
$var wire 1 g! root [31] $end
$var wire 1 h! root [30] $end
$var wire 1 i! root [29] $end
$var wire 1 j! root [28] $end
$var wire 1 k! root [27] $end
$var wire 1 l! root [26] $end
$var wire 1 m! root [25] $end
$var wire 1 n! root [24] $end
$var wire 1 o! root [23] $end
$var wire 1 p! root [22] $end
$var wire 1 q! root [21] $end
$var wire 1 r! root [20] $end
$var wire 1 s! root [19] $end
$var wire 1 t! root [18] $end
$var wire 1 u! root [17] $end
$var wire 1 v! root [16] $end
$var wire 1 w! root [15] $end
$var wire 1 x! root [14] $end
$var wire 1 y! root [13] $end
$var wire 1 z! root [12] $end
$var wire 1 {! root [11] $end
$var wire 1 |! root [10] $end
$var wire 1 }! root [9] $end
$var wire 1 ~! root [8] $end
$var wire 1 !" root [7] $end
$var wire 1 "" root [6] $end
$var wire 1 #" root [5] $end
$var wire 1 $" root [4] $end
$var wire 1 %" root [3] $end
$var wire 1 &" root [2] $end
$var wire 1 '" root [1] $end
$var wire 1 (" root [0] $end
$var wire 1 )" square [31] $end
$var wire 1 *" square [30] $end
$var wire 1 +" square [29] $end
$var wire 1 ," square [28] $end
$var wire 1 -" square [27] $end
$var wire 1 ." square [26] $end
$var wire 1 /" square [25] $end
$var wire 1 0" square [24] $end
$var wire 1 1" square [23] $end
$var wire 1 2" square [22] $end
$var wire 1 3" square [21] $end
$var wire 1 4" square [20] $end
$var wire 1 5" square [19] $end
$var wire 1 6" square [18] $end
$var wire 1 7" square [17] $end
$var wire 1 8" square [16] $end
$var wire 1 9" square [15] $end
$var wire 1 :" square [14] $end
$var wire 1 ;" square [13] $end
$var wire 1 <" square [12] $end
$var wire 1 =" square [11] $end
$var wire 1 >" square [10] $end
$var wire 1 ?" square [9] $end
$var wire 1 @" square [8] $end
$var wire 1 A" square [7] $end
$var wire 1 B" square [6] $end
$var wire 1 C" square [5] $end
$var wire 1 D" square [4] $end
$var wire 1 E" square [3] $end
$var wire 1 F" square [2] $end
$var wire 1 G" square [1] $end
$var wire 1 H" square [0] $end
$var wire 1 I" sqrin [31] $end
$var wire 1 J" sqrin [30] $end
$var wire 1 K" sqrin [29] $end
$var wire 1 L" sqrin [28] $end
$var wire 1 M" sqrin [27] $end
$var wire 1 N" sqrin [26] $end
$var wire 1 O" sqrin [25] $end
$var wire 1 P" sqrin [24] $end
$var wire 1 Q" sqrin [23] $end
$var wire 1 R" sqrin [22] $end
$var wire 1 S" sqrin [21] $end
$var wire 1 T" sqrin [20] $end
$var wire 1 U" sqrin [19] $end
$var wire 1 V" sqrin [18] $end
$var wire 1 W" sqrin [17] $end
$var wire 1 X" sqrin [16] $end
$var wire 1 Y" sqrin [15] $end
$var wire 1 Z" sqrin [14] $end
$var wire 1 [" sqrin [13] $end
$var wire 1 \" sqrin [12] $end
$var wire 1 ]" sqrin [11] $end
$var wire 1 ^" sqrin [10] $end
$var wire 1 _" sqrin [9] $end
$var wire 1 `" sqrin [8] $end
$var wire 1 a" sqrin [7] $end
$var wire 1 b" sqrin [6] $end
$var wire 1 c" sqrin [5] $end
$var wire 1 d" sqrin [4] $end
$var wire 1 e" sqrin [3] $end
$var wire 1 f" sqrin [2] $end
$var wire 1 g" sqrin [1] $end
$var wire 1 h" sqrin [0] $end
$var wire 1 i" tempin [31] $end
$var wire 1 j" tempin [30] $end
$var wire 1 k" tempin [29] $end
$var wire 1 l" tempin [28] $end
$var wire 1 m" tempin [27] $end
$var wire 1 n" tempin [26] $end
$var wire 1 o" tempin [25] $end
$var wire 1 p" tempin [24] $end
$var wire 1 q" tempin [23] $end
$var wire 1 r" tempin [22] $end
$var wire 1 s" tempin [21] $end
$var wire 1 t" tempin [20] $end
$var wire 1 u" tempin [19] $end
$var wire 1 v" tempin [18] $end
$var wire 1 w" tempin [17] $end
$var wire 1 x" tempin [16] $end
$var wire 1 y" tempin [15] $end
$var wire 1 z" tempin [14] $end
$var wire 1 {" tempin [13] $end
$var wire 1 |" tempin [12] $end
$var wire 1 }" tempin [11] $end
$var wire 1 ~" tempin [10] $end
$var wire 1 !# tempin [9] $end
$var wire 1 "# tempin [8] $end
$var wire 1 ## tempin [7] $end
$var wire 1 $# tempin [6] $end
$var wire 1 %# tempin [5] $end
$var wire 1 &# tempin [4] $end
$var wire 1 '# tempin [3] $end
$var wire 1 (# tempin [2] $end
$var wire 1 )# tempin [1] $end
$var wire 1 *# tempin [0] $end
$var wire 1 +# tempout [31] $end
$var wire 1 ,# tempout [30] $end
$var wire 1 -# tempout [29] $end
$var wire 1 .# tempout [28] $end
$var wire 1 /# tempout [27] $end
$var wire 1 0# tempout [26] $end
$var wire 1 1# tempout [25] $end
$var wire 1 2# tempout [24] $end
$var wire 1 3# tempout [23] $end
$var wire 1 4# tempout [22] $end
$var wire 1 5# tempout [21] $end
$var wire 1 6# tempout [20] $end
$var wire 1 7# tempout [19] $end
$var wire 1 8# tempout [18] $end
$var wire 1 9# tempout [17] $end
$var wire 1 :# tempout [16] $end
$var wire 1 ;# tempout [15] $end
$var wire 1 <# tempout [14] $end
$var wire 1 =# tempout [13] $end
$var wire 1 ># tempout [12] $end
$var wire 1 ?# tempout [11] $end
$var wire 1 @# tempout [10] $end
$var wire 1 A# tempout [9] $end
$var wire 1 B# tempout [8] $end
$var wire 1 C# tempout [7] $end
$var wire 1 D# tempout [6] $end
$var wire 1 E# tempout [5] $end
$var wire 1 F# tempout [4] $end
$var wire 1 G# tempout [3] $end
$var wire 1 H# tempout [2] $end
$var wire 1 I# tempout [1] $end
$var wire 1 J# tempout [0] $end
$var wire 1 K# count [31] $end
$var wire 1 L# count [30] $end
$var wire 1 M# count [29] $end
$var wire 1 N# count [28] $end
$var wire 1 O# count [27] $end
$var wire 1 P# count [26] $end
$var wire 1 Q# count [25] $end
$var wire 1 R# count [24] $end
$var wire 1 S# count [23] $end
$var wire 1 T# count [22] $end
$var wire 1 U# count [21] $end
$var wire 1 V# count [20] $end
$var wire 1 W# count [19] $end
$var wire 1 X# count [18] $end
$var wire 1 Y# count [17] $end
$var wire 1 Z# count [16] $end
$var wire 1 [# count [15] $end
$var wire 1 \# count [14] $end
$var wire 1 ]# count [13] $end
$var wire 1 ^# count [12] $end
$var wire 1 _# count [11] $end
$var wire 1 `# count [10] $end
$var wire 1 a# count [9] $end
$var wire 1 b# count [8] $end
$var wire 1 c# count [7] $end
$var wire 1 d# count [6] $end
$var wire 1 e# count [5] $end
$var wire 1 f# count [4] $end
$var wire 1 g# count [3] $end
$var wire 1 h# count [2] $end
$var wire 1 i# count [1] $end
$var wire 1 j# count [0] $end
$var wire 1 k# multrdy $end
$var wire 1 l# sqrrdy $end
$var wire 1 m# bothrdy $end
$var wire 1 n# multgo $end
$var wire 1 o# sqrgo $end
$var wire 1 p# done $end
$var wire 1 q# inputExponent [31] $end
$var wire 1 r# inputExponent [30] $end
$var wire 1 s# inputExponent [29] $end
$var wire 1 t# inputExponent [28] $end
$var wire 1 u# inputExponent [27] $end
$var wire 1 v# inputExponent [26] $end
$var wire 1 w# inputExponent [25] $end
$var wire 1 x# inputExponent [24] $end
$var wire 1 y# inputExponent [23] $end
$var wire 1 z# inputExponent [22] $end
$var wire 1 {# inputExponent [21] $end
$var wire 1 |# inputExponent [20] $end
$var wire 1 }# inputExponent [19] $end
$var wire 1 ~# inputExponent [18] $end
$var wire 1 !$ inputExponent [17] $end
$var wire 1 "$ inputExponent [16] $end
$var wire 1 #$ inputExponent [15] $end
$var wire 1 $$ inputExponent [14] $end
$var wire 1 %$ inputExponent [13] $end
$var wire 1 &$ inputExponent [12] $end
$var wire 1 '$ inputExponent [11] $end
$var wire 1 ($ inputExponent [10] $end
$var wire 1 )$ inputExponent [9] $end
$var wire 1 *$ inputExponent [8] $end
$var wire 1 +$ inputExponent [7] $end
$var wire 1 ,$ inputExponent [6] $end
$var wire 1 -$ inputExponent [5] $end
$var wire 1 .$ inputExponent [4] $end
$var wire 1 /$ inputExponent [3] $end
$var wire 1 0$ inputExponent [2] $end
$var wire 1 1$ inputExponent [1] $end
$var wire 1 2$ inputExponent [0] $end

$scope module modmultiply $end
$var wire 1 i" mpand [31] $end
$var wire 1 j" mpand [30] $end
$var wire 1 k" mpand [29] $end
$var wire 1 l" mpand [28] $end
$var wire 1 m" mpand [27] $end
$var wire 1 n" mpand [26] $end
$var wire 1 o" mpand [25] $end
$var wire 1 p" mpand [24] $end
$var wire 1 q" mpand [23] $end
$var wire 1 r" mpand [22] $end
$var wire 1 s" mpand [21] $end
$var wire 1 t" mpand [20] $end
$var wire 1 u" mpand [19] $end
$var wire 1 v" mpand [18] $end
$var wire 1 w" mpand [17] $end
$var wire 1 x" mpand [16] $end
$var wire 1 y" mpand [15] $end
$var wire 1 z" mpand [14] $end
$var wire 1 {" mpand [13] $end
$var wire 1 |" mpand [12] $end
$var wire 1 }" mpand [11] $end
$var wire 1 ~" mpand [10] $end
$var wire 1 !# mpand [9] $end
$var wire 1 "# mpand [8] $end
$var wire 1 ## mpand [7] $end
$var wire 1 $# mpand [6] $end
$var wire 1 %# mpand [5] $end
$var wire 1 &# mpand [4] $end
$var wire 1 '# mpand [3] $end
$var wire 1 (# mpand [2] $end
$var wire 1 )# mpand [1] $end
$var wire 1 *# mpand [0] $end
$var wire 1 I" mplier [31] $end
$var wire 1 J" mplier [30] $end
$var wire 1 K" mplier [29] $end
$var wire 1 L" mplier [28] $end
$var wire 1 M" mplier [27] $end
$var wire 1 N" mplier [26] $end
$var wire 1 O" mplier [25] $end
$var wire 1 P" mplier [24] $end
$var wire 1 Q" mplier [23] $end
$var wire 1 R" mplier [22] $end
$var wire 1 S" mplier [21] $end
$var wire 1 T" mplier [20] $end
$var wire 1 U" mplier [19] $end
$var wire 1 V" mplier [18] $end
$var wire 1 W" mplier [17] $end
$var wire 1 X" mplier [16] $end
$var wire 1 Y" mplier [15] $end
$var wire 1 Z" mplier [14] $end
$var wire 1 [" mplier [13] $end
$var wire 1 \" mplier [12] $end
$var wire 1 ]" mplier [11] $end
$var wire 1 ^" mplier [10] $end
$var wire 1 _" mplier [9] $end
$var wire 1 `" mplier [8] $end
$var wire 1 a" mplier [7] $end
$var wire 1 b" mplier [6] $end
$var wire 1 c" mplier [5] $end
$var wire 1 d" mplier [4] $end
$var wire 1 e" mplier [3] $end
$var wire 1 f" mplier [2] $end
$var wire 1 g" mplier [1] $end
$var wire 1 h" mplier [0] $end
$var wire 1 G! modulus [31] $end
$var wire 1 H! modulus [30] $end
$var wire 1 I! modulus [29] $end
$var wire 1 J! modulus [28] $end
$var wire 1 K! modulus [27] $end
$var wire 1 L! modulus [26] $end
$var wire 1 M! modulus [25] $end
$var wire 1 N! modulus [24] $end
$var wire 1 O! modulus [23] $end
$var wire 1 P! modulus [22] $end
$var wire 1 Q! modulus [21] $end
$var wire 1 R! modulus [20] $end
$var wire 1 S! modulus [19] $end
$var wire 1 T! modulus [18] $end
$var wire 1 U! modulus [17] $end
$var wire 1 V! modulus [16] $end
$var wire 1 W! modulus [15] $end
$var wire 1 X! modulus [14] $end
$var wire 1 Y! modulus [13] $end
$var wire 1 Z! modulus [12] $end
$var wire 1 [! modulus [11] $end
$var wire 1 \! modulus [10] $end
$var wire 1 ]! modulus [9] $end
$var wire 1 ^! modulus [8] $end
$var wire 1 _! modulus [7] $end
$var wire 1 `! modulus [6] $end
$var wire 1 a! modulus [5] $end
$var wire 1 b! modulus [4] $end
$var wire 1 c! modulus [3] $end
$var wire 1 d! modulus [2] $end
$var wire 1 e! modulus [1] $end
$var wire 1 f! modulus [0] $end
$var wire 1 +# product [31] $end
$var wire 1 ,# product [30] $end
$var wire 1 -# product [29] $end
$var wire 1 .# product [28] $end
$var wire 1 /# product [27] $end
$var wire 1 0# product [26] $end
$var wire 1 1# product [25] $end
$var wire 1 2# product [24] $end
$var wire 1 3# product [23] $end
$var wire 1 4# product [22] $end
$var wire 1 5# product [21] $end
$var wire 1 6# product [20] $end
$var wire 1 7# product [19] $end
$var wire 1 8# product [18] $end
$var wire 1 9# product [17] $end
$var wire 1 :# product [16] $end
$var wire 1 ;# product [15] $end
$var wire 1 <# product [14] $end
$var wire 1 =# product [13] $end
$var wire 1 ># product [12] $end
$var wire 1 ?# product [11] $end
$var wire 1 @# product [10] $end
$var wire 1 A# product [9] $end
$var wire 1 B# product [8] $end
$var wire 1 C# product [7] $end
$var wire 1 D# product [6] $end
$var wire 1 E# product [5] $end
$var wire 1 F# product [4] $end
$var wire 1 G# product [3] $end
$var wire 1 H# product [2] $end
$var wire 1 I# product [1] $end
$var wire 1 J# product [0] $end
$var wire 1 C! clk $end
$var wire 1 n# ds $end
$var wire 1 E! reset $end
$var wire 1 k# ready $end
$var wire 1 3$ mpreg [31] $end
$var wire 1 4$ mpreg [30] $end
$var wire 1 5$ mpreg [29] $end
$var wire 1 6$ mpreg [28] $end
$var wire 1 7$ mpreg [27] $end
$var wire 1 8$ mpreg [26] $end
$var wire 1 9$ mpreg [25] $end
$var wire 1 :$ mpreg [24] $end
$var wire 1 ;$ mpreg [23] $end
$var wire 1 <$ mpreg [22] $end
$var wire 1 =$ mpreg [21] $end
$var wire 1 >$ mpreg [20] $end
$var wire 1 ?$ mpreg [19] $end
$var wire 1 @$ mpreg [18] $end
$var wire 1 A$ mpreg [17] $end
$var wire 1 B$ mpreg [16] $end
$var wire 1 C$ mpreg [15] $end
$var wire 1 D$ mpreg [14] $end
$var wire 1 E$ mpreg [13] $end
$var wire 1 F$ mpreg [12] $end
$var wire 1 G$ mpreg [11] $end
$var wire 1 H$ mpreg [10] $end
$var wire 1 I$ mpreg [9] $end
$var wire 1 J$ mpreg [8] $end
$var wire 1 K$ mpreg [7] $end
$var wire 1 L$ mpreg [6] $end
$var wire 1 M$ mpreg [5] $end
$var wire 1 N$ mpreg [4] $end
$var wire 1 O$ mpreg [3] $end
$var wire 1 P$ mpreg [2] $end
$var wire 1 Q$ mpreg [1] $end
$var wire 1 R$ mpreg [0] $end
$var wire 1 S$ mcreg [33] $end
$var wire 1 T$ mcreg [32] $end
$var wire 1 U$ mcreg [31] $end
$var wire 1 V$ mcreg [30] $end
$var wire 1 W$ mcreg [29] $end
$var wire 1 X$ mcreg [28] $end
$var wire 1 Y$ mcreg [27] $end
$var wire 1 Z$ mcreg [26] $end
$var wire 1 [$ mcreg [25] $end
$var wire 1 \$ mcreg [24] $end
$var wire 1 ]$ mcreg [23] $end
$var wire 1 ^$ mcreg [22] $end
$var wire 1 _$ mcreg [21] $end
$var wire 1 `$ mcreg [20] $end
$var wire 1 a$ mcreg [19] $end
$var wire 1 b$ mcreg [18] $end
$var wire 1 c$ mcreg [17] $end
$var wire 1 d$ mcreg [16] $end
$var wire 1 e$ mcreg [15] $end
$var wire 1 f$ mcreg [14] $end
$var wire 1 g$ mcreg [13] $end
$var wire 1 h$ mcreg [12] $end
$var wire 1 i$ mcreg [11] $end
$var wire 1 j$ mcreg [10] $end
$var wire 1 k$ mcreg [9] $end
$var wire 1 l$ mcreg [8] $end
$var wire 1 m$ mcreg [7] $end
$var wire 1 n$ mcreg [6] $end
$var wire 1 o$ mcreg [5] $end
$var wire 1 p$ mcreg [4] $end
$var wire 1 q$ mcreg [3] $end
$var wire 1 r$ mcreg [2] $end
$var wire 1 s$ mcreg [1] $end
$var wire 1 t$ mcreg [0] $end
$var wire 1 u$ mcreg1 [33] $end
$var wire 1 v$ mcreg1 [32] $end
$var wire 1 w$ mcreg1 [31] $end
$var wire 1 x$ mcreg1 [30] $end
$var wire 1 y$ mcreg1 [29] $end
$var wire 1 z$ mcreg1 [28] $end
$var wire 1 {$ mcreg1 [27] $end
$var wire 1 |$ mcreg1 [26] $end
$var wire 1 }$ mcreg1 [25] $end
$var wire 1 ~$ mcreg1 [24] $end
$var wire 1 !% mcreg1 [23] $end
$var wire 1 "% mcreg1 [22] $end
$var wire 1 #% mcreg1 [21] $end
$var wire 1 $% mcreg1 [20] $end
$var wire 1 %% mcreg1 [19] $end
$var wire 1 &% mcreg1 [18] $end
$var wire 1 '% mcreg1 [17] $end
$var wire 1 (% mcreg1 [16] $end
$var wire 1 )% mcreg1 [15] $end
$var wire 1 *% mcreg1 [14] $end
$var wire 1 +% mcreg1 [13] $end
$var wire 1 ,% mcreg1 [12] $end
$var wire 1 -% mcreg1 [11] $end
$var wire 1 .% mcreg1 [10] $end
$var wire 1 /% mcreg1 [9] $end
$var wire 1 0% mcreg1 [8] $end
$var wire 1 1% mcreg1 [7] $end
$var wire 1 2% mcreg1 [6] $end
$var wire 1 3% mcreg1 [5] $end
$var wire 1 4% mcreg1 [4] $end
$var wire 1 5% mcreg1 [3] $end
$var wire 1 6% mcreg1 [2] $end
$var wire 1 7% mcreg1 [1] $end
$var wire 1 8% mcreg1 [0] $end
$var wire 1 9% mcreg2 [33] $end
$var wire 1 :% mcreg2 [32] $end
$var wire 1 ;% mcreg2 [31] $end
$var wire 1 <% mcreg2 [30] $end
$var wire 1 =% mcreg2 [29] $end
$var wire 1 >% mcreg2 [28] $end
$var wire 1 ?% mcreg2 [27] $end
$var wire 1 @% mcreg2 [26] $end
$var wire 1 A% mcreg2 [25] $end
$var wire 1 B% mcreg2 [24] $end
$var wire 1 C% mcreg2 [23] $end
$var wire 1 D% mcreg2 [22] $end
$var wire 1 E% mcreg2 [21] $end
$var wire 1 F% mcreg2 [20] $end
$var wire 1 G% mcreg2 [19] $end
$var wire 1 H% mcreg2 [18] $end
$var wire 1 I% mcreg2 [17] $end
$var wire 1 J% mcreg2 [16] $end
$var wire 1 K% mcreg2 [15] $end
$var wire 1 L% mcreg2 [14] $end
$var wire 1 M% mcreg2 [13] $end
$var wire 1 N% mcreg2 [12] $end
$var wire 1 O% mcreg2 [11] $end
$var wire 1 P% mcreg2 [10] $end
$var wire 1 Q% mcreg2 [9] $end
$var wire 1 R% mcreg2 [8] $end
$var wire 1 S% mcreg2 [7] $end
$var wire 1 T% mcreg2 [6] $end
$var wire 1 U% mcreg2 [5] $end
$var wire 1 V% mcreg2 [4] $end
$var wire 1 W% mcreg2 [3] $end
$var wire 1 X% mcreg2 [2] $end
$var wire 1 Y% mcreg2 [1] $end
$var wire 1 Z% mcreg2 [0] $end
$var wire 1 [% modreg1 [33] $end
$var wire 1 \% modreg1 [32] $end
$var wire 1 ]% modreg1 [31] $end
$var wire 1 ^% modreg1 [30] $end
$var wire 1 _% modreg1 [29] $end
$var wire 1 `% modreg1 [28] $end
$var wire 1 a% modreg1 [27] $end
$var wire 1 b% modreg1 [26] $end
$var wire 1 c% modreg1 [25] $end
$var wire 1 d% modreg1 [24] $end
$var wire 1 e% modreg1 [23] $end
$var wire 1 f% modreg1 [22] $end
$var wire 1 g% modreg1 [21] $end
$var wire 1 h% modreg1 [20] $end
$var wire 1 i% modreg1 [19] $end
$var wire 1 j% modreg1 [18] $end
$var wire 1 k% modreg1 [17] $end
$var wire 1 l% modreg1 [16] $end
$var wire 1 m% modreg1 [15] $end
$var wire 1 n% modreg1 [14] $end
$var wire 1 o% modreg1 [13] $end
$var wire 1 p% modreg1 [12] $end
$var wire 1 q% modreg1 [11] $end
$var wire 1 r% modreg1 [10] $end
$var wire 1 s% modreg1 [9] $end
$var wire 1 t% modreg1 [8] $end
$var wire 1 u% modreg1 [7] $end
$var wire 1 v% modreg1 [6] $end
$var wire 1 w% modreg1 [5] $end
$var wire 1 x% modreg1 [4] $end
$var wire 1 y% modreg1 [3] $end
$var wire 1 z% modreg1 [2] $end
$var wire 1 {% modreg1 [1] $end
$var wire 1 |% modreg1 [0] $end
$var wire 1 }% modreg2 [33] $end
$var wire 1 ~% modreg2 [32] $end
$var wire 1 !& modreg2 [31] $end
$var wire 1 "& modreg2 [30] $end
$var wire 1 #& modreg2 [29] $end
$var wire 1 $& modreg2 [28] $end
$var wire 1 %& modreg2 [27] $end
$var wire 1 && modreg2 [26] $end
$var wire 1 '& modreg2 [25] $end
$var wire 1 (& modreg2 [24] $end
$var wire 1 )& modreg2 [23] $end
$var wire 1 *& modreg2 [22] $end
$var wire 1 +& modreg2 [21] $end
$var wire 1 ,& modreg2 [20] $end
$var wire 1 -& modreg2 [19] $end
$var wire 1 .& modreg2 [18] $end
$var wire 1 /& modreg2 [17] $end
$var wire 1 0& modreg2 [16] $end
$var wire 1 1& modreg2 [15] $end
$var wire 1 2& modreg2 [14] $end
$var wire 1 3& modreg2 [13] $end
$var wire 1 4& modreg2 [12] $end
$var wire 1 5& modreg2 [11] $end
$var wire 1 6& modreg2 [10] $end
$var wire 1 7& modreg2 [9] $end
$var wire 1 8& modreg2 [8] $end
$var wire 1 9& modreg2 [7] $end
$var wire 1 :& modreg2 [6] $end
$var wire 1 ;& modreg2 [5] $end
$var wire 1 <& modreg2 [4] $end
$var wire 1 =& modreg2 [3] $end
$var wire 1 >& modreg2 [2] $end
$var wire 1 ?& modreg2 [1] $end
$var wire 1 @& modreg2 [0] $end
$var wire 1 A& prodreg [33] $end
$var wire 1 B& prodreg [32] $end
$var wire 1 C& prodreg [31] $end
$var wire 1 D& prodreg [30] $end
$var wire 1 E& prodreg [29] $end
$var wire 1 F& prodreg [28] $end
$var wire 1 G& prodreg [27] $end
$var wire 1 H& prodreg [26] $end
$var wire 1 I& prodreg [25] $end
$var wire 1 J& prodreg [24] $end
$var wire 1 K& prodreg [23] $end
$var wire 1 L& prodreg [22] $end
$var wire 1 M& prodreg [21] $end
$var wire 1 N& prodreg [20] $end
$var wire 1 O& prodreg [19] $end
$var wire 1 P& prodreg [18] $end
$var wire 1 Q& prodreg [17] $end
$var wire 1 R& prodreg [16] $end
$var wire 1 S& prodreg [15] $end
$var wire 1 T& prodreg [14] $end
$var wire 1 U& prodreg [13] $end
$var wire 1 V& prodreg [12] $end
$var wire 1 W& prodreg [11] $end
$var wire 1 X& prodreg [10] $end
$var wire 1 Y& prodreg [9] $end
$var wire 1 Z& prodreg [8] $end
$var wire 1 [& prodreg [7] $end
$var wire 1 \& prodreg [6] $end
$var wire 1 ]& prodreg [5] $end
$var wire 1 ^& prodreg [4] $end
$var wire 1 _& prodreg [3] $end
$var wire 1 `& prodreg [2] $end
$var wire 1 a& prodreg [1] $end
$var wire 1 b& prodreg [0] $end
$var wire 1 c& prodreg1 [33] $end
$var wire 1 d& prodreg1 [32] $end
$var wire 1 e& prodreg1 [31] $end
$var wire 1 f& prodreg1 [30] $end
$var wire 1 g& prodreg1 [29] $end
$var wire 1 h& prodreg1 [28] $end
$var wire 1 i& prodreg1 [27] $end
$var wire 1 j& prodreg1 [26] $end
$var wire 1 k& prodreg1 [25] $end
$var wire 1 l& prodreg1 [24] $end
$var wire 1 m& prodreg1 [23] $end
$var wire 1 n& prodreg1 [22] $end
$var wire 1 o& prodreg1 [21] $end
$var wire 1 p& prodreg1 [20] $end
$var wire 1 q& prodreg1 [19] $end
$var wire 1 r& prodreg1 [18] $end
$var wire 1 s& prodreg1 [17] $end
$var wire 1 t& prodreg1 [16] $end
$var wire 1 u& prodreg1 [15] $end
$var wire 1 v& prodreg1 [14] $end
$var wire 1 w& prodreg1 [13] $end
$var wire 1 x& prodreg1 [12] $end
$var wire 1 y& prodreg1 [11] $end
$var wire 1 z& prodreg1 [10] $end
$var wire 1 {& prodreg1 [9] $end
$var wire 1 |& prodreg1 [8] $end
$var wire 1 }& prodreg1 [7] $end
$var wire 1 ~& prodreg1 [6] $end
$var wire 1 !' prodreg1 [5] $end
$var wire 1 "' prodreg1 [4] $end
$var wire 1 #' prodreg1 [3] $end
$var wire 1 $' prodreg1 [2] $end
$var wire 1 %' prodreg1 [1] $end
$var wire 1 &' prodreg1 [0] $end
$var wire 1 '' prodreg2 [33] $end
$var wire 1 (' prodreg2 [32] $end
$var wire 1 )' prodreg2 [31] $end
$var wire 1 *' prodreg2 [30] $end
$var wire 1 +' prodreg2 [29] $end
$var wire 1 ,' prodreg2 [28] $end
$var wire 1 -' prodreg2 [27] $end
$var wire 1 .' prodreg2 [26] $end
$var wire 1 /' prodreg2 [25] $end
$var wire 1 0' prodreg2 [24] $end
$var wire 1 1' prodreg2 [23] $end
$var wire 1 2' prodreg2 [22] $end
$var wire 1 3' prodreg2 [21] $end
$var wire 1 4' prodreg2 [20] $end
$var wire 1 5' prodreg2 [19] $end
$var wire 1 6' prodreg2 [18] $end
$var wire 1 7' prodreg2 [17] $end
$var wire 1 8' prodreg2 [16] $end
$var wire 1 9' prodreg2 [15] $end
$var wire 1 :' prodreg2 [14] $end
$var wire 1 ;' prodreg2 [13] $end
$var wire 1 <' prodreg2 [12] $end
$var wire 1 =' prodreg2 [11] $end
$var wire 1 >' prodreg2 [10] $end
$var wire 1 ?' prodreg2 [9] $end
$var wire 1 @' prodreg2 [8] $end
$var wire 1 A' prodreg2 [7] $end
$var wire 1 B' prodreg2 [6] $end
$var wire 1 C' prodreg2 [5] $end
$var wire 1 D' prodreg2 [4] $end
$var wire 1 E' prodreg2 [3] $end
$var wire 1 F' prodreg2 [2] $end
$var wire 1 G' prodreg2 [1] $end
$var wire 1 H' prodreg2 [0] $end
$var wire 1 I' prodreg3 [33] $end
$var wire 1 J' prodreg3 [32] $end
$var wire 1 K' prodreg3 [31] $end
$var wire 1 L' prodreg3 [30] $end
$var wire 1 M' prodreg3 [29] $end
$var wire 1 N' prodreg3 [28] $end
$var wire 1 O' prodreg3 [27] $end
$var wire 1 P' prodreg3 [26] $end
$var wire 1 Q' prodreg3 [25] $end
$var wire 1 R' prodreg3 [24] $end
$var wire 1 S' prodreg3 [23] $end
$var wire 1 T' prodreg3 [22] $end
$var wire 1 U' prodreg3 [21] $end
$var wire 1 V' prodreg3 [20] $end
$var wire 1 W' prodreg3 [19] $end
$var wire 1 X' prodreg3 [18] $end
$var wire 1 Y' prodreg3 [17] $end
$var wire 1 Z' prodreg3 [16] $end
$var wire 1 [' prodreg3 [15] $end
$var wire 1 \' prodreg3 [14] $end
$var wire 1 ]' prodreg3 [13] $end
$var wire 1 ^' prodreg3 [12] $end
$var wire 1 _' prodreg3 [11] $end
$var wire 1 `' prodreg3 [10] $end
$var wire 1 a' prodreg3 [9] $end
$var wire 1 b' prodreg3 [8] $end
$var wire 1 c' prodreg3 [7] $end
$var wire 1 d' prodreg3 [6] $end
$var wire 1 e' prodreg3 [5] $end
$var wire 1 f' prodreg3 [4] $end
$var wire 1 g' prodreg3 [3] $end
$var wire 1 h' prodreg3 [2] $end
$var wire 1 i' prodreg3 [1] $end
$var wire 1 j' prodreg3 [0] $end
$var wire 1 k' prodreg4 [33] $end
$var wire 1 l' prodreg4 [32] $end
$var wire 1 m' prodreg4 [31] $end
$var wire 1 n' prodreg4 [30] $end
$var wire 1 o' prodreg4 [29] $end
$var wire 1 p' prodreg4 [28] $end
$var wire 1 q' prodreg4 [27] $end
$var wire 1 r' prodreg4 [26] $end
$var wire 1 s' prodreg4 [25] $end
$var wire 1 t' prodreg4 [24] $end
$var wire 1 u' prodreg4 [23] $end
$var wire 1 v' prodreg4 [22] $end
$var wire 1 w' prodreg4 [21] $end
$var wire 1 x' prodreg4 [20] $end
$var wire 1 y' prodreg4 [19] $end
$var wire 1 z' prodreg4 [18] $end
$var wire 1 {' prodreg4 [17] $end
$var wire 1 |' prodreg4 [16] $end
$var wire 1 }' prodreg4 [15] $end
$var wire 1 ~' prodreg4 [14] $end
$var wire 1 !( prodreg4 [13] $end
$var wire 1 "( prodreg4 [12] $end
$var wire 1 #( prodreg4 [11] $end
$var wire 1 $( prodreg4 [10] $end
$var wire 1 %( prodreg4 [9] $end
$var wire 1 &( prodreg4 [8] $end
$var wire 1 '( prodreg4 [7] $end
$var wire 1 (( prodreg4 [6] $end
$var wire 1 )( prodreg4 [5] $end
$var wire 1 *( prodreg4 [4] $end
$var wire 1 +( prodreg4 [3] $end
$var wire 1 ,( prodreg4 [2] $end
$var wire 1 -( prodreg4 [1] $end
$var wire 1 .( prodreg4 [0] $end
$var wire 1 /( modstate [1] $end
$var wire 1 0( modstate [0] $end
$var wire 1 1( first $end
$upscope $end

$scope module modsqr $end
$var wire 1 g! mpand [31] $end
$var wire 1 h! mpand [30] $end
$var wire 1 i! mpand [29] $end
$var wire 1 j! mpand [28] $end
$var wire 1 k! mpand [27] $end
$var wire 1 l! mpand [26] $end
$var wire 1 m! mpand [25] $end
$var wire 1 n! mpand [24] $end
$var wire 1 o! mpand [23] $end
$var wire 1 p! mpand [22] $end
$var wire 1 q! mpand [21] $end
$var wire 1 r! mpand [20] $end
$var wire 1 s! mpand [19] $end
$var wire 1 t! mpand [18] $end
$var wire 1 u! mpand [17] $end
$var wire 1 v! mpand [16] $end
$var wire 1 w! mpand [15] $end
$var wire 1 x! mpand [14] $end
$var wire 1 y! mpand [13] $end
$var wire 1 z! mpand [12] $end
$var wire 1 {! mpand [11] $end
$var wire 1 |! mpand [10] $end
$var wire 1 }! mpand [9] $end
$var wire 1 ~! mpand [8] $end
$var wire 1 !" mpand [7] $end
$var wire 1 "" mpand [6] $end
$var wire 1 #" mpand [5] $end
$var wire 1 $" mpand [4] $end
$var wire 1 %" mpand [3] $end
$var wire 1 &" mpand [2] $end
$var wire 1 '" mpand [1] $end
$var wire 1 (" mpand [0] $end
$var wire 1 g! mplier [31] $end
$var wire 1 h! mplier [30] $end
$var wire 1 i! mplier [29] $end
$var wire 1 j! mplier [28] $end
$var wire 1 k! mplier [27] $end
$var wire 1 l! mplier [26] $end
$var wire 1 m! mplier [25] $end
$var wire 1 n! mplier [24] $end
$var wire 1 o! mplier [23] $end
$var wire 1 p! mplier [22] $end
$var wire 1 q! mplier [21] $end
$var wire 1 r! mplier [20] $end
$var wire 1 s! mplier [19] $end
$var wire 1 t! mplier [18] $end
$var wire 1 u! mplier [17] $end
$var wire 1 v! mplier [16] $end
$var wire 1 w! mplier [15] $end
$var wire 1 x! mplier [14] $end
$var wire 1 y! mplier [13] $end
$var wire 1 z! mplier [12] $end
$var wire 1 {! mplier [11] $end
$var wire 1 |! mplier [10] $end
$var wire 1 }! mplier [9] $end
$var wire 1 ~! mplier [8] $end
$var wire 1 !" mplier [7] $end
$var wire 1 "" mplier [6] $end
$var wire 1 #" mplier [5] $end
$var wire 1 $" mplier [4] $end
$var wire 1 %" mplier [3] $end
$var wire 1 &" mplier [2] $end
$var wire 1 '" mplier [1] $end
$var wire 1 (" mplier [0] $end
$var wire 1 G! modulus [31] $end
$var wire 1 H! modulus [30] $end
$var wire 1 I! modulus [29] $end
$var wire 1 J! modulus [28] $end
$var wire 1 K! modulus [27] $end
$var wire 1 L! modulus [26] $end
$var wire 1 M! modulus [25] $end
$var wire 1 N! modulus [24] $end
$var wire 1 O! modulus [23] $end
$var wire 1 P! modulus [22] $end
$var wire 1 Q! modulus [21] $end
$var wire 1 R! modulus [20] $end
$var wire 1 S! modulus [19] $end
$var wire 1 T! modulus [18] $end
$var wire 1 U! modulus [17] $end
$var wire 1 V! modulus [16] $end
$var wire 1 W! modulus [15] $end
$var wire 1 X! modulus [14] $end
$var wire 1 Y! modulus [13] $end
$var wire 1 Z! modulus [12] $end
$var wire 1 [! modulus [11] $end
$var wire 1 \! modulus [10] $end
$var wire 1 ]! modulus [9] $end
$var wire 1 ^! modulus [8] $end
$var wire 1 _! modulus [7] $end
$var wire 1 `! modulus [6] $end
$var wire 1 a! modulus [5] $end
$var wire 1 b! modulus [4] $end
$var wire 1 c! modulus [3] $end
$var wire 1 d! modulus [2] $end
$var wire 1 e! modulus [1] $end
$var wire 1 f! modulus [0] $end
$var wire 1 )" product [31] $end
$var wire 1 *" product [30] $end
$var wire 1 +" product [29] $end
$var wire 1 ," product [28] $end
$var wire 1 -" product [27] $end
$var wire 1 ." product [26] $end
$var wire 1 /" product [25] $end
$var wire 1 0" product [24] $end
$var wire 1 1" product [23] $end
$var wire 1 2" product [22] $end
$var wire 1 3" product [21] $end
$var wire 1 4" product [20] $end
$var wire 1 5" product [19] $end
$var wire 1 6" product [18] $end
$var wire 1 7" product [17] $end
$var wire 1 8" product [16] $end
$var wire 1 9" product [15] $end
$var wire 1 :" product [14] $end
$var wire 1 ;" product [13] $end
$var wire 1 <" product [12] $end
$var wire 1 =" product [11] $end
$var wire 1 >" product [10] $end
$var wire 1 ?" product [9] $end
$var wire 1 @" product [8] $end
$var wire 1 A" product [7] $end
$var wire 1 B" product [6] $end
$var wire 1 C" product [5] $end
$var wire 1 D" product [4] $end
$var wire 1 E" product [3] $end
$var wire 1 F" product [2] $end
$var wire 1 G" product [1] $end
$var wire 1 H" product [0] $end
$var wire 1 C! clk $end
$var wire 1 n# ds $end
$var wire 1 E! reset $end
$var wire 1 l# ready $end
$var wire 1 2( mpreg [31] $end
$var wire 1 3( mpreg [30] $end
$var wire 1 4( mpreg [29] $end
$var wire 1 5( mpreg [28] $end
$var wire 1 6( mpreg [27] $end
$var wire 1 7( mpreg [26] $end
$var wire 1 8( mpreg [25] $end
$var wire 1 9( mpreg [24] $end
$var wire 1 :( mpreg [23] $end
$var wire 1 ;( mpreg [22] $end
$var wire 1 <( mpreg [21] $end
$var wire 1 =( mpreg [20] $end
$var wire 1 >( mpreg [19] $end
$var wire 1 ?( mpreg [18] $end
$var wire 1 @( mpreg [17] $end
$var wire 1 A( mpreg [16] $end
$var wire 1 B( mpreg [15] $end
$var wire 1 C( mpreg [14] $end
$var wire 1 D( mpreg [13] $end
$var wire 1 E( mpreg [12] $end
$var wire 1 F( mpreg [11] $end
$var wire 1 G( mpreg [10] $end
$var wire 1 H( mpreg [9] $end
$var wire 1 I( mpreg [8] $end
$var wire 1 J( mpreg [7] $end
$var wire 1 K( mpreg [6] $end
$var wire 1 L( mpreg [5] $end
$var wire 1 M( mpreg [4] $end
$var wire 1 N( mpreg [3] $end
$var wire 1 O( mpreg [2] $end
$var wire 1 P( mpreg [1] $end
$var wire 1 Q( mpreg [0] $end
$var wire 1 R( mcreg [33] $end
$var wire 1 S( mcreg [32] $end
$var wire 1 T( mcreg [31] $end
$var wire 1 U( mcreg [30] $end
$var wire 1 V( mcreg [29] $end
$var wire 1 W( mcreg [28] $end
$var wire 1 X( mcreg [27] $end
$var wire 1 Y( mcreg [26] $end
$var wire 1 Z( mcreg [25] $end
$var wire 1 [( mcreg [24] $end
$var wire 1 \( mcreg [23] $end
$var wire 1 ]( mcreg [22] $end
$var wire 1 ^( mcreg [21] $end
$var wire 1 _( mcreg [20] $end
$var wire 1 `( mcreg [19] $end
$var wire 1 a( mcreg [18] $end
$var wire 1 b( mcreg [17] $end
$var wire 1 c( mcreg [16] $end
$var wire 1 d( mcreg [15] $end
$var wire 1 e( mcreg [14] $end
$var wire 1 f( mcreg [13] $end
$var wire 1 g( mcreg [12] $end
$var wire 1 h( mcreg [11] $end
$var wire 1 i( mcreg [10] $end
$var wire 1 j( mcreg [9] $end
$var wire 1 k( mcreg [8] $end
$var wire 1 l( mcreg [7] $end
$var wire 1 m( mcreg [6] $end
$var wire 1 n( mcreg [5] $end
$var wire 1 o( mcreg [4] $end
$var wire 1 p( mcreg [3] $end
$var wire 1 q( mcreg [2] $end
$var wire 1 r( mcreg [1] $end
$var wire 1 s( mcreg [0] $end
$var wire 1 t( mcreg1 [33] $end
$var wire 1 u( mcreg1 [32] $end
$var wire 1 v( mcreg1 [31] $end
$var wire 1 w( mcreg1 [30] $end
$var wire 1 x( mcreg1 [29] $end
$var wire 1 y( mcreg1 [28] $end
$var wire 1 z( mcreg1 [27] $end
$var wire 1 {( mcreg1 [26] $end
$var wire 1 |( mcreg1 [25] $end
$var wire 1 }( mcreg1 [24] $end
$var wire 1 ~( mcreg1 [23] $end
$var wire 1 !) mcreg1 [22] $end
$var wire 1 ") mcreg1 [21] $end
$var wire 1 #) mcreg1 [20] $end
$var wire 1 $) mcreg1 [19] $end
$var wire 1 %) mcreg1 [18] $end
$var wire 1 &) mcreg1 [17] $end
$var wire 1 ') mcreg1 [16] $end
$var wire 1 () mcreg1 [15] $end
$var wire 1 )) mcreg1 [14] $end
$var wire 1 *) mcreg1 [13] $end
$var wire 1 +) mcreg1 [12] $end
$var wire 1 ,) mcreg1 [11] $end
$var wire 1 -) mcreg1 [10] $end
$var wire 1 .) mcreg1 [9] $end
$var wire 1 /) mcreg1 [8] $end
$var wire 1 0) mcreg1 [7] $end
$var wire 1 1) mcreg1 [6] $end
$var wire 1 2) mcreg1 [5] $end
$var wire 1 3) mcreg1 [4] $end
$var wire 1 4) mcreg1 [3] $end
$var wire 1 5) mcreg1 [2] $end
$var wire 1 6) mcreg1 [1] $end
$var wire 1 7) mcreg1 [0] $end
$var wire 1 8) mcreg2 [33] $end
$var wire 1 9) mcreg2 [32] $end
$var wire 1 :) mcreg2 [31] $end
$var wire 1 ;) mcreg2 [30] $end
$var wire 1 <) mcreg2 [29] $end
$var wire 1 =) mcreg2 [28] $end
$var wire 1 >) mcreg2 [27] $end
$var wire 1 ?) mcreg2 [26] $end
$var wire 1 @) mcreg2 [25] $end
$var wire 1 A) mcreg2 [24] $end
$var wire 1 B) mcreg2 [23] $end
$var wire 1 C) mcreg2 [22] $end
$var wire 1 D) mcreg2 [21] $end
$var wire 1 E) mcreg2 [20] $end
$var wire 1 F) mcreg2 [19] $end
$var wire 1 G) mcreg2 [18] $end
$var wire 1 H) mcreg2 [17] $end
$var wire 1 I) mcreg2 [16] $end
$var wire 1 J) mcreg2 [15] $end
$var wire 1 K) mcreg2 [14] $end
$var wire 1 L) mcreg2 [13] $end
$var wire 1 M) mcreg2 [12] $end
$var wire 1 N) mcreg2 [11] $end
$var wire 1 O) mcreg2 [10] $end
$var wire 1 P) mcreg2 [9] $end
$var wire 1 Q) mcreg2 [8] $end
$var wire 1 R) mcreg2 [7] $end
$var wire 1 S) mcreg2 [6] $end
$var wire 1 T) mcreg2 [5] $end
$var wire 1 U) mcreg2 [4] $end
$var wire 1 V) mcreg2 [3] $end
$var wire 1 W) mcreg2 [2] $end
$var wire 1 X) mcreg2 [1] $end
$var wire 1 Y) mcreg2 [0] $end
$var wire 1 Z) modreg1 [33] $end
$var wire 1 [) modreg1 [32] $end
$var wire 1 \) modreg1 [31] $end
$var wire 1 ]) modreg1 [30] $end
$var wire 1 ^) modreg1 [29] $end
$var wire 1 _) modreg1 [28] $end
$var wire 1 `) modreg1 [27] $end
$var wire 1 a) modreg1 [26] $end
$var wire 1 b) modreg1 [25] $end
$var wire 1 c) modreg1 [24] $end
$var wire 1 d) modreg1 [23] $end
$var wire 1 e) modreg1 [22] $end
$var wire 1 f) modreg1 [21] $end
$var wire 1 g) modreg1 [20] $end
$var wire 1 h) modreg1 [19] $end
$var wire 1 i) modreg1 [18] $end
$var wire 1 j) modreg1 [17] $end
$var wire 1 k) modreg1 [16] $end
$var wire 1 l) modreg1 [15] $end
$var wire 1 m) modreg1 [14] $end
$var wire 1 n) modreg1 [13] $end
$var wire 1 o) modreg1 [12] $end
$var wire 1 p) modreg1 [11] $end
$var wire 1 q) modreg1 [10] $end
$var wire 1 r) modreg1 [9] $end
$var wire 1 s) modreg1 [8] $end
$var wire 1 t) modreg1 [7] $end
$var wire 1 u) modreg1 [6] $end
$var wire 1 v) modreg1 [5] $end
$var wire 1 w) modreg1 [4] $end
$var wire 1 x) modreg1 [3] $end
$var wire 1 y) modreg1 [2] $end
$var wire 1 z) modreg1 [1] $end
$var wire 1 {) modreg1 [0] $end
$var wire 1 |) modreg2 [33] $end
$var wire 1 }) modreg2 [32] $end
$var wire 1 ~) modreg2 [31] $end
$var wire 1 !* modreg2 [30] $end
$var wire 1 "* modreg2 [29] $end
$var wire 1 #* modreg2 [28] $end
$var wire 1 $* modreg2 [27] $end
$var wire 1 %* modreg2 [26] $end
$var wire 1 &* modreg2 [25] $end
$var wire 1 '* modreg2 [24] $end
$var wire 1 (* modreg2 [23] $end
$var wire 1 )* modreg2 [22] $end
$var wire 1 ** modreg2 [21] $end
$var wire 1 +* modreg2 [20] $end
$var wire 1 ,* modreg2 [19] $end
$var wire 1 -* modreg2 [18] $end
$var wire 1 .* modreg2 [17] $end
$var wire 1 /* modreg2 [16] $end
$var wire 1 0* modreg2 [15] $end
$var wire 1 1* modreg2 [14] $end
$var wire 1 2* modreg2 [13] $end
$var wire 1 3* modreg2 [12] $end
$var wire 1 4* modreg2 [11] $end
$var wire 1 5* modreg2 [10] $end
$var wire 1 6* modreg2 [9] $end
$var wire 1 7* modreg2 [8] $end
$var wire 1 8* modreg2 [7] $end
$var wire 1 9* modreg2 [6] $end
$var wire 1 :* modreg2 [5] $end
$var wire 1 ;* modreg2 [4] $end
$var wire 1 <* modreg2 [3] $end
$var wire 1 =* modreg2 [2] $end
$var wire 1 >* modreg2 [1] $end
$var wire 1 ?* modreg2 [0] $end
$var wire 1 @* prodreg [33] $end
$var wire 1 A* prodreg [32] $end
$var wire 1 B* prodreg [31] $end
$var wire 1 C* prodreg [30] $end
$var wire 1 D* prodreg [29] $end
$var wire 1 E* prodreg [28] $end
$var wire 1 F* prodreg [27] $end
$var wire 1 G* prodreg [26] $end
$var wire 1 H* prodreg [25] $end
$var wire 1 I* prodreg [24] $end
$var wire 1 J* prodreg [23] $end
$var wire 1 K* prodreg [22] $end
$var wire 1 L* prodreg [21] $end
$var wire 1 M* prodreg [20] $end
$var wire 1 N* prodreg [19] $end
$var wire 1 O* prodreg [18] $end
$var wire 1 P* prodreg [17] $end
$var wire 1 Q* prodreg [16] $end
$var wire 1 R* prodreg [15] $end
$var wire 1 S* prodreg [14] $end
$var wire 1 T* prodreg [13] $end
$var wire 1 U* prodreg [12] $end
$var wire 1 V* prodreg [11] $end
$var wire 1 W* prodreg [10] $end
$var wire 1 X* prodreg [9] $end
$var wire 1 Y* prodreg [8] $end
$var wire 1 Z* prodreg [7] $end
$var wire 1 [* prodreg [6] $end
$var wire 1 \* prodreg [5] $end
$var wire 1 ]* prodreg [4] $end
$var wire 1 ^* prodreg [3] $end
$var wire 1 _* prodreg [2] $end
$var wire 1 `* prodreg [1] $end
$var wire 1 a* prodreg [0] $end
$var wire 1 b* prodreg1 [33] $end
$var wire 1 c* prodreg1 [32] $end
$var wire 1 d* prodreg1 [31] $end
$var wire 1 e* prodreg1 [30] $end
$var wire 1 f* prodreg1 [29] $end
$var wire 1 g* prodreg1 [28] $end
$var wire 1 h* prodreg1 [27] $end
$var wire 1 i* prodreg1 [26] $end
$var wire 1 j* prodreg1 [25] $end
$var wire 1 k* prodreg1 [24] $end
$var wire 1 l* prodreg1 [23] $end
$var wire 1 m* prodreg1 [22] $end
$var wire 1 n* prodreg1 [21] $end
$var wire 1 o* prodreg1 [20] $end
$var wire 1 p* prodreg1 [19] $end
$var wire 1 q* prodreg1 [18] $end
$var wire 1 r* prodreg1 [17] $end
$var wire 1 s* prodreg1 [16] $end
$var wire 1 t* prodreg1 [15] $end
$var wire 1 u* prodreg1 [14] $end
$var wire 1 v* prodreg1 [13] $end
$var wire 1 w* prodreg1 [12] $end
$var wire 1 x* prodreg1 [11] $end
$var wire 1 y* prodreg1 [10] $end
$var wire 1 z* prodreg1 [9] $end
$var wire 1 {* prodreg1 [8] $end
$var wire 1 |* prodreg1 [7] $end
$var wire 1 }* prodreg1 [6] $end
$var wire 1 ~* prodreg1 [5] $end
$var wire 1 !+ prodreg1 [4] $end
$var wire 1 "+ prodreg1 [3] $end
$var wire 1 #+ prodreg1 [2] $end
$var wire 1 $+ prodreg1 [1] $end
$var wire 1 %+ prodreg1 [0] $end
$var wire 1 &+ prodreg2 [33] $end
$var wire 1 '+ prodreg2 [32] $end
$var wire 1 (+ prodreg2 [31] $end
$var wire 1 )+ prodreg2 [30] $end
$var wire 1 *+ prodreg2 [29] $end
$var wire 1 ++ prodreg2 [28] $end
$var wire 1 ,+ prodreg2 [27] $end
$var wire 1 -+ prodreg2 [26] $end
$var wire 1 .+ prodreg2 [25] $end
$var wire 1 /+ prodreg2 [24] $end
$var wire 1 0+ prodreg2 [23] $end
$var wire 1 1+ prodreg2 [22] $end
$var wire 1 2+ prodreg2 [21] $end
$var wire 1 3+ prodreg2 [20] $end
$var wire 1 4+ prodreg2 [19] $end
$var wire 1 5+ prodreg2 [18] $end
$var wire 1 6+ prodreg2 [17] $end
$var wire 1 7+ prodreg2 [16] $end
$var wire 1 8+ prodreg2 [15] $end
$var wire 1 9+ prodreg2 [14] $end
$var wire 1 :+ prodreg2 [13] $end
$var wire 1 ;+ prodreg2 [12] $end
$var wire 1 <+ prodreg2 [11] $end
$var wire 1 =+ prodreg2 [10] $end
$var wire 1 >+ prodreg2 [9] $end
$var wire 1 ?+ prodreg2 [8] $end
$var wire 1 @+ prodreg2 [7] $end
$var wire 1 A+ prodreg2 [6] $end
$var wire 1 B+ prodreg2 [5] $end
$var wire 1 C+ prodreg2 [4] $end
$var wire 1 D+ prodreg2 [3] $end
$var wire 1 E+ prodreg2 [2] $end
$var wire 1 F+ prodreg2 [1] $end
$var wire 1 G+ prodreg2 [0] $end
$var wire 1 H+ prodreg3 [33] $end
$var wire 1 I+ prodreg3 [32] $end
$var wire 1 J+ prodreg3 [31] $end
$var wire 1 K+ prodreg3 [30] $end
$var wire 1 L+ prodreg3 [29] $end
$var wire 1 M+ prodreg3 [28] $end
$var wire 1 N+ prodreg3 [27] $end
$var wire 1 O+ prodreg3 [26] $end
$var wire 1 P+ prodreg3 [25] $end
$var wire 1 Q+ prodreg3 [24] $end
$var wire 1 R+ prodreg3 [23] $end
$var wire 1 S+ prodreg3 [22] $end
$var wire 1 T+ prodreg3 [21] $end
$var wire 1 U+ prodreg3 [20] $end
$var wire 1 V+ prodreg3 [19] $end
$var wire 1 W+ prodreg3 [18] $end
$var wire 1 X+ prodreg3 [17] $end
$var wire 1 Y+ prodreg3 [16] $end
$var wire 1 Z+ prodreg3 [15] $end
$var wire 1 [+ prodreg3 [14] $end
$var wire 1 \+ prodreg3 [13] $end
$var wire 1 ]+ prodreg3 [12] $end
$var wire 1 ^+ prodreg3 [11] $end
$var wire 1 _+ prodreg3 [10] $end
$var wire 1 `+ prodreg3 [9] $end
$var wire 1 a+ prodreg3 [8] $end
$var wire 1 b+ prodreg3 [7] $end
$var wire 1 c+ prodreg3 [6] $end
$var wire 1 d+ prodreg3 [5] $end
$var wire 1 e+ prodreg3 [4] $end
$var wire 1 f+ prodreg3 [3] $end
$var wire 1 g+ prodreg3 [2] $end
$var wire 1 h+ prodreg3 [1] $end
$var wire 1 i+ prodreg3 [0] $end
$var wire 1 j+ prodreg4 [33] $end
$var wire 1 k+ prodreg4 [32] $end
$var wire 1 l+ prodreg4 [31] $end
$var wire 1 m+ prodreg4 [30] $end
$var wire 1 n+ prodreg4 [29] $end
$var wire 1 o+ prodreg4 [28] $end
$var wire 1 p+ prodreg4 [27] $end
$var wire 1 q+ prodreg4 [26] $end
$var wire 1 r+ prodreg4 [25] $end
$var wire 1 s+ prodreg4 [24] $end
$var wire 1 t+ prodreg4 [23] $end
$var wire 1 u+ prodreg4 [22] $end
$var wire 1 v+ prodreg4 [21] $end
$var wire 1 w+ prodreg4 [20] $end
$var wire 1 x+ prodreg4 [19] $end
$var wire 1 y+ prodreg4 [18] $end
$var wire 1 z+ prodreg4 [17] $end
$var wire 1 {+ prodreg4 [16] $end
$var wire 1 |+ prodreg4 [15] $end
$var wire 1 }+ prodreg4 [14] $end
$var wire 1 ~+ prodreg4 [13] $end
$var wire 1 !, prodreg4 [12] $end
$var wire 1 ", prodreg4 [11] $end
$var wire 1 #, prodreg4 [10] $end
$var wire 1 $, prodreg4 [9] $end
$var wire 1 %, prodreg4 [8] $end
$var wire 1 &, prodreg4 [7] $end
$var wire 1 ', prodreg4 [6] $end
$var wire 1 (, prodreg4 [5] $end
$var wire 1 ), prodreg4 [4] $end
$var wire 1 *, prodreg4 [3] $end
$var wire 1 +, prodreg4 [2] $end
$var wire 1 ,, prodreg4 [1] $end
$var wire 1 -, prodreg4 [0] $end
$var wire 1 ., modstate [1] $end
$var wire 1 /, modstate [0] $end
$var wire 1 0, first $end
$upscope $end
$upscope $end
$upscope $end
$enddefinitions $end
#0
$dumpvars
xC!
xD!
xE!
xF!
xk#
xl#
xm#
xn#
xo#
xp#
x1(
x0,
xG!
xH!
xI!
xJ!
xK!
xL!
xM!
xN!
xO!
xP!
xQ!
xR!
xS!
xT!
xU!
xV!
xW!
xX!
xY!
xZ!
x[!
x\!
x]!
x^!
x_!
x`!
xa!
xb!
xc!
xd!
xe!
xf!
xI"
xJ"
xK"
xL"
xM"
xN"
xO"
xP"
xQ"
xR"
xS"
xT"
xU"
xV"
xW"
xX"
xY"
xZ"
x["
x\"
x]"
x^"
x_"
x`"
xa"
xb"
xc"
xd"
xe"
xf"
xg"
xh"
xi"
xj"
xk"
xl"
xm"
xn"
xo"
xp"
xq"
xr"
xs"
xt"
xu"
xv"
xw"
xx"
xy"
xz"
x{"
x|"
x}"
x~"
x!#
x"#
x##
x$#
x%#
x&#
x'#
x(#
x)#
x*#
x!
x"
x#
x$
x%
x&
x'
x(
x)
x*
x+
x,
x-
x.
x/
x0
x1
x2
x3
x4
x5
x6
x7
x8
x9
x:
x;
x<
x=
x>
x?
x@
xA
xB
xC
xD
xE
xF
xG
xH
xI
xJ
xK
xL
xM
xN
xO
xP
xQ
xR
xS
xT
xU
xV
xW
xX
xY
xZ
x[
x\
x]
x^
x_
x`
xR(
xS(
xT(
xU(
xV(
xW(
xX(
xY(
xZ(
x[(
x\(
x](
x^(
x_(
x`(
xa(
xb(
xc(
xd(
xe(
xf(
xg(
xh(
xi(
xj(
xk(
xl(
xm(
xn(
xo(
xp(
xq(
xr(
xs(
xt(
xu(
xv(
xw(
xx(
xy(
xz(
x{(
x|(
x}(
x~(
x!)
x")
x#)
x$)
x%)
x&)
x')
x()
x))
x*)
x+)
x,)
x-)
x.)
x/)
x0)
x1)
x2)
x3)
x4)
x5)
x6)
x7)
x8)
x9)
x:)
x;)
x<)
x=)
x>)
x?)
x@)
xA)
xB)
xC)
xD)
xE)
xF)
xG)
xH)
xI)
xJ)
xK)
xL)
xM)
xN)
xO)
xP)
xQ)
xR)
xS)
xT)
xU)
xV)
xW)
xX)
xY)
xZ)
x[)
x\)
x])
x^)
x_)
x`)
xa)
xb)
xc)
xd)
xe)
xf)
xg)
xh)
xi)
xj)
xk)
xl)
xm)
xn)
xo)
xp)
xq)
xr)
xs)
xt)
xu)
xv)
xw)
xx)
xy)
xz)
x{)
x|)
x})
x~)
x!*
x"*
x#*
x$*
x%*
x&*
x'*
x(*
x)*
x**
x+*
x,*
x-*
x.*
x/*
x0*
x1*
x2*
x3*
x4*
x5*
x6*
x7*
x8*
x9*
x:*
x;*
x<*
x=*
x>*
x?*
x@*
xA*
xB*
xC*
xD*
xE*
xF*
xG*
xH*
xI*
xJ*
xK*
xL*
xM*
xN*
xO*
xP*
xQ*
xR*
xS*
xT*
xU*
xV*
xW*
xX*
xY*
xZ*
x[*
x\*
x]*
x^*
x_*
x`*
xa*
xb*
xc*
xd*
xe*
xf*
xg*
xh*
xi*
xj*
xk*
xl*
xm*
xn*
xo*
xp*
xq*
xr*
xs*
xt*
xu*
xv*
xw*
xx*
xy*
xz*
x{*
x|*
x}*
x~*
x!+
x"+
x#+
x$+
x%+
x&+
x'+
x(+
x)+
x*+
x++
x,+
x-+
x.+
x/+
x0+
x1+
x2+
x3+
x4+
x5+
x6+
x7+
x8+
x9+
x:+
x;+
x<+
x=+
x>+
x?+
x@+
xA+
xB+
xC+
xD+
xE+
xF+
xG+
xH+
xI+
xJ+
xK+
xL+
xM+
xN+
xO+
xP+
xQ+
xR+
xS+
xT+
xU+
xV+
xW+
xX+
xY+
xZ+
x[+
x\+
x]+
x^+
x_+
x`+
xa+
xb+
xc+
xd+
xe+
xf+
xg+
xh+
xi+
xj+
xk+
xl+
xm+
xn+
xo+
xp+
xq+
xr+
xs+
xt+
xu+
xv+
xw+
xx+
xy+
xz+
x{+
x|+
x}+
x~+
x!,
x",
x#,
x$,
x%,
x&,
x',
x(,
x),
x*,
x+,
x,,
x-,
x.,
x/,
xa
xb
xc
xd
xe
xf
xg
xh
xi
xj
xk
xl
xm
xn
xo
xp
xq
xr
xs
xt
xu
xv
xw
xx
xy
xz
x{
x|
x}
x~
x!!
x"!
x#!
x$!
x%!
x&!
x'!
x(!
x)!
x*!
x+!
x,!
x-!
x.!
x/!
x0!
x1!
x2!
x3!
x4!
x5!
x6!
x7!
x8!
x9!
x:!
x;!
x<!
x=!
x>!
x?!
x@!
xA!
xB!
xg!
xh!
xi!
xj!
xk!
xl!
xm!
xn!
xo!
xp!
xq!
xr!
xs!
xt!
xu!
xv!
xw!
xx!
xy!
xz!
x{!
x|!
x}!
x~!
x!"
x""
x#"
x$"
x%"
x&"
x'"
x("
x)"
x*"
x+"
x,"
x-"
x."
x/"
x0"
x1"
x2"
x3"
x4"
x5"
x6"
x7"
x8"
x9"
x:"
x;"
x<"
x="
x>"
x?"
x@"
xA"
xB"
xC"
xD"
xE"
xF"
xG"
xH"
x+#
x,#
x-#
x.#
x/#
x0#
x1#
x2#
x3#
x4#
x5#
x6#
x7#
x8#
x9#
x:#
x;#
x<#
x=#
x>#
x?#
x@#
xA#
xB#
xC#
xD#
xE#
xF#
xG#
xH#
xI#
xJ#
xK#
xL#
xM#
xN#
xO#
xP#
xQ#
xR#
xS#
xT#
xU#
xV#
xW#
xX#
xY#
xZ#
x[#
x\#
x]#
x^#
x_#
x`#
xa#
xb#
xc#
xd#
xe#
xf#
xg#
xh#
xi#
xj#
xq#
xr#
xs#
xt#
xu#
xv#
xw#
xx#
xy#
xz#
x{#
x|#
x}#
x~#
x!$
x"$
x#$
x$$
x%$
x&$
x'$
x($
x)$
x*$
x+$
x,$
x-$
x.$
x/$
x0$
x1$
x2$
x3$
x4$
x5$
x6$
x7$
x8$
x9$
x:$
x;$
x<$
x=$
x>$
x?$
x@$
xA$
xB$
xC$
xD$
xE$
xF$
xG$
xH$
xI$
xJ$
xK$
xL$
xM$
xN$
xO$
xP$
xQ$
xR$
xS$
xT$
xU$
xV$
xW$
xX$
xY$
xZ$
x[$
x\$
x]$
x^$
x_$
x`$
xa$
xb$
xc$
xd$
xe$
xf$
xg$
xh$
xi$
xj$
xk$
xl$
xm$
xn$
xo$
xp$
xq$
xr$
xs$
xt$
xu$
xv$
xw$
xx$
xy$
xz$
x{$
x|$
x}$
x~$
x!%
x"%
x#%
x$%
x%%
x&%
x'%
x(%
x)%
x*%
x+%
x,%
x-%
x.%
x/%
x0%
x1%
x2%
x3%
x4%
x5%
x6%
x7%
x8%
x9%
x:%
x;%
x<%
x=%
x>%
x?%
x@%
xA%
xB%
xC%
xD%
xE%
xF%
xG%
xH%
xI%
xJ%
xK%
xL%
xM%
xN%
xO%
xP%
xQ%
xR%
xS%
xT%
xU%
xV%
xW%
xX%
xY%
xZ%
x[%
x\%
x]%
x^%
x_%
x`%
xa%
xb%
xc%
xd%
xe%
xf%
xg%
xh%
xi%
xj%
xk%
xl%
xm%
xn%
xo%
xp%
xq%
xr%
xs%
xt%
xu%
xv%
xw%
xx%
xy%
xz%
x{%
x|%
x}%
x~%
x!&
x"&
x#&
x$&
x%&
x&&
x'&
x(&
x)&
x*&
x+&
x,&
x-&
x.&
x/&
x0&
x1&
x2&
x3&
x4&
x5&
x6&
x7&
x8&
x9&
x:&
x;&
x<&
x=&
x>&
x?&
x@&
xA&
xB&
xC&
xD&
xE&
xF&
xG&
xH&
xI&
xJ&
xK&
xL&
xM&
xN&
xO&
xP&
xQ&
xR&
xS&
xT&
xU&
xV&
xW&
xX&
xY&
xZ&
x[&
x\&
x]&
x^&
x_&
x`&
xa&
xb&
xc&
xd&
xe&
xf&
xg&
xh&
xi&
xj&
xk&
xl&
xm&
xn&
xo&
xp&
xq&
xr&
xs&
xt&
xu&
xv&
xw&
xx&
xy&
xz&
x{&
x|&
x}&
x~&
x!'
x"'
x#'
x$'
x%'
x&'
x''
x('
x)'
x*'
x+'
x,'
x-'
x.'
x/'
x0'
x1'
x2'
x3'
x4'
x5'
x6'
x7'
x8'
x9'
x:'
x;'
x<'
x='
x>'
x?'
x@'
xA'
xB'
xC'
xD'
xE'
xF'
xG'
xH'
xI'
xJ'
xK'
xL'
xM'
xN'
xO'
xP'
xQ'
xR'
xS'
xT'
xU'
xV'
xW'
xX'
xY'
xZ'
x['
x\'
x]'
x^'
x_'
x`'
xa'
xb'
xc'
xd'
xe'
xf'
xg'
xh'
xi'
xj'
xk'
xl'
xm'
xn'
xo'
xp'
xq'
xr'
xs'
xt'
xu'
xv'
xw'
xx'
xy'
xz'
x{'
x|'
x}'
x~'
x!(
x"(
x#(
x$(
x%(
x&(
x'(
x((
x)(
x*(
x+(
x,(
x-(
x.(
x/(
x0(
x2(
x3(
x4(
x5(
x6(
x7(
x8(
x9(
x:(
x;(
x<(
x=(
x>(
x?(
x@(
xA(
xB(
xC(
xD(
xE(
xF(
xG(
xH(
xI(
xJ(
xK(
xL(
xM(
xN(
xO(
xP(
xQ(
$end
#5
1C!
#10
0C!
#15
1C!
xb&
xa&
x`&
x_&
x^&
x]&
x\&
x[&
xZ&
xY&
xX&
xW&
xV&
xU&
xT&
xS&
xR&
xQ&
xP&
xO&
xN&
xM&
xL&
xK&
xJ&
xI&
xH&
xG&
xF&
xE&
xD&
xC&
xB&
xA&
03$
0t$
xs$
xr$
xq$
xp$
xo$
xn$
xm$
xl$
xk$
xj$
xi$
xh$
xg$
xf$
xe$
xd$
xc$
xb$
xa$
x`$
x_$
x^$
x]$
x\$
x[$
xZ$
xY$
xX$
xW$
xV$
xU$
xT$
xS$
xa*
x`*
x_*
x^*
x]*
x\*
x[*
xZ*
xY*
xX*
xW*
xV*
xU*
xT*
xS*
xR*
xQ*
xP*
xO*
xN*
xM*
xL*
xK*
xJ*
xI*
xH*
xG*
xF*
xE*
xD*
xC*
xB*
xA*
x@*
02(
0s(
xr(
xq(
xp(
xo(
xn(
xm(
xl(
xk(
xj(
xi(
xh(
xg(
xf(
xe(
xd(
xc(
xb(
xa(
x`(
x_(
x^(
x](
x\(
x[(
xZ(
xY(
xX(
xW(
xV(
xU(
xT(
xS(
xR(
x("
x'"
x&"
x%"
x$"
x#"
x""
x!"
x~!
x}!
x|!
x{!
xz!
xy!
xx!
xw!
xv!
xu!
xt!
xs!
xr!
xq!
xp!
xo!
xn!
xm!
xl!
xk!
xj!
xi!
xh!
xg!
1h"
0g"
0f"
0e"
0d"
0c"
0b"
0a"
0`"
0_"
0^"
0]"
0\"
0["
0Z"
0Y"
0X"
0W"
0V"
0U"
0T"
0S"
0R"
0Q"
0P"
0O"
0N"
0M"
0L"
0K"
0J"
0I"
x*#
x)#
x(#
x'#
x&#
x%#
x$#
x##
x"#
x!#
x~"
x}"
x|"
x{"
xz"
xy"
xx"
xw"
xv"
xu"
xt"
xs"
xr"
xq"
xp"
xo"
xn"
xm"
xl"
xk"
xj"
xi"
x&'
x%'
x$'
x#'
x"'
x!'
x~&
x}&
x|&
x{&
xz&
xy&
xx&
xw&
xv&
xu&
xt&
xs&
xr&
xq&
xp&
xo&
xn&
xm&
xl&
xk&
xj&
xi&
xh&
xg&
xf&
xe&
xd&
xc&
x%+
x$+
x#+
x"+
x!+
x~*
x}*
x|*
x{*
xz*
xy*
xx*
xw*
xv*
xu*
xt*
xs*
xr*
xq*
xp*
xo*
xn*
xm*
xl*
xk*
xj*
xi*
xh*
xg*
xf*
xe*
xd*
xc*
xb*
#20
0C!
#25
1C!
04$
03(
#30
0C!
#35
1C!
05$
04(
#40
0C!
#45
1C!
06$
05(
#50
0C!
#55
1C!
07$
06(
#60
0C!
#65
1C!
08$
07(
#70
0C!
#75
1C!
09$
08(
#80
0C!
#85
1C!
0:$
09(
#90
0C!
#95
1C!
0;$
0:(
#100
0C!
#105
1C!
0<$
0;(
#110
0C!
#115
1C!
0=$
0<(
#120
0C!
0D!
1E!
0("
0'"
0&"
0%"
0$"
0#"
0""
0!"
0~!
0}!
0|!
0{!
0z!
0y!
0x!
0w!
0v!
0u!
0t!
0s!
0r!
0q!
0p!
0o!
0n!
0m!
0l!
0k!
0j!
0i!
0h!
0g!
0f!
0e!
0d!
0c!
0b!
0a!
0`!
0_!
0^!
0]!
0\!
0[!
0Z!
0Y!
0X!
0W!
0V!
0U!
0T!
0S!
0R!
0Q!
0P!
0O!
0N!
0M!
0L!
0K!
0J!
0I!
0H!
0G!
0h"
0*#
0)#
0(#
0'#
0&#
0%#
0$#
0##
0"#
0!#
0~"
0}"
0|"
0{"
0z"
0y"
0x"
0w"
0v"
0u"
0t"
0s"
0r"
0q"
0p"
0o"
0n"
0m"
0l"
0k"
0j"
0i"
1p#
0j#
0i#
0h#
0g#
0f#
0e#
0d#
0c#
0b#
0a#
0`#
0_#
0^#
0]#
0\#
0[#
0Z#
0Y#
0X#
0W#
0V#
0U#
0T#
0S#
0R#
0Q#
0P#
0O#
0N#
0M#
0L#
0K#
0n#
11(
10,
1F!
1k#
1l#
1m#
#125
1C!
#130
0C!
#135
1C!
#140
0C!
0E!
#145
1C!
#150
0C!
1@
0?
0>
0=
0<
0;
0:
09
18
17
06
05
04
03
02
01
00
1/
0.
1-
1,
1+
1*
1)
1(
0'
0&
0%
0$
0#
0"
0!
1"!
0!!
0~
1}
1|
0{
1z
0y
1x
0w
0v
0u
0t
0s
1r
1q
0p
1o
0n
0m
1l
1k
0j
1i
1h
1g
0f
0e
0d
0c
0b
0a
1`
0_
0^
1]
1\
0[
1Z
1Y
0X
1W
0V
1U
1T
1S
0R
0Q
0P
0O
0N
0M
1L
0K
0J
1I
0H
0G
0F
0E
0D
0C
0B
0A
12$
01$
00$
0/$
0.$
0-$
0,$
0+$
0*$
0)$
0($
0'$
0&$
0%$
0$$
0#$
0"$
0!$
0~#
0}#
0|#
0{#
0z#
0y#
0x#
0w#
0v#
0u#
0t#
0s#
0r#
0q#
#155
1C!
#157
1D!
#160
0C!
#165
1C!
1("
1~!
1}!
1u!
1s!
1r!
1q!
1p!
1o!
1n!
1h"
1f!
1c!
1b!
1`!
1^!
1X!
1W!
1U!
1R!
1Q!
1O!
1N!
1M!
1*#
1"#
1!#
1w"
1u"
1t"
1s"
1r"
1q"
1p"
0p#
1n#
0F!
0D!
#170
0C!
#175
1C!
01(
0b&
0a&
0`&
0_&
0^&
0]&
0\&
0[&
0Z&
0Y&
0X&
0W&
0V&
0U&
0T&
0S&
0R&
0Q&
0P&
0O&
0N&
0M&
0L&
0K&
0J&
0I&
0H&
0G&
0F&
0E&
0D&
0C&
0B&
0A&
0@&
1?&
0>&
0=&
1<&
1;&
0:&
19&
08&
17&
06&
05&
04&
03&
02&
11&
10&
0/&
1.&
0-&
0,&
1+&
1*&
0)&
1(&
1'&
1&&
0%&
0$&
0#&
0"&
0!&
0~%
0}%
1|%
0{%
0z%
1y%
1x%
0w%
1v%
0u%
1t%
0s%
0r%
0q%
0p%
0o%
1n%
1m%
0l%
1k%
0j%
0i%
1h%
1g%
0f%
1e%
1d%
1c%
0b%
0a%
0`%
0_%
0^%
0]%
0\%
0[%
1t$
0s$
0r$
0q$
0p$
0o$
0n$
0m$
1l$
1k$
0j$
0i$
0h$
0g$
0f$
0e$
0d$
1c$
0b$
1a$
1`$
1_$
1^$
1]$
1\$
0[$
0Z$
0Y$
0X$
0W$
0V$
0U$
0T$
0S$
1R$
0Q$
0P$
0O$
0N$
0M$
0L$
0K$
0J$
0I$
0H$
0G$
0F$
0E$
0D$
0C$
0B$
0A$
0@$
0?$
0>$
00,
0a*
0`*
0_*
0^*
0]*
0\*
0[*
0Z*
0Y*
0X*
0W*
0V*
0U*
0T*
0S*
0R*
0Q*
0P*
0O*
0N*
0M*
0L*
0K*
0J*
0I*
0H*
0G*
0F*
0E*
0D*
0C*
0B*
0A*
0@*
0?*
1>*
0=*
0<*
1;*
1:*
09*
18*
07*
16*
05*
04*
03*
02*
01*
10*
1/*
0.*
1-*
0,*
0+*
1**
1)*
0(*
1'*
1&*
1%*
0$*
0#*
0"*
0!*
0~)
0})
0|)
1{)
0z)
0y)
1x)
1w)
0v)
1u)
0t)
1s)
0r)
0q)
0p)
0o)
0n)
1m)
1l)
0k)
1j)
0i)
0h)
1g)
1f)
0e)
1d)
1c)
1b)
0a)
0`)
0_)
0^)
0])
0\)
0[)
0Z)
1s(
0r(
0q(
0p(
0o(
0n(
0m(
0l(
1k(
1j(
0i(
0h(
0g(
0f(
0e(
0d(
0c(
1b(
0a(
1`(
1_(
1^(
1](
1\(
1[(
0Z(
0Y(
0X(
0W(
0V(
0U(
0T(
0S(
0R(
1Q(
0P(
0O(
0N(
0M(
0L(
0K(
0J(
1I(
1H(
0G(
0F(
0E(
0D(
0C(
0B(
0A(
1@(
0?(
1>(
1=(
1<(
1;(
1:(
19(
x("
x'"
x&"
x%"
x$"
x#"
x""
x!"
x~!
x}!
x|!
x{!
xz!
xy!
xx!
xw!
xv!
xu!
xt!
xs!
xr!
xq!
xp!
xo!
xn!
xm!
xl!
xk!
xj!
xi!
xh!
xg!
x*#
x)#
x(#
x'#
x&#
x%#
x$#
x##
x"#
x!#
x~"
x}"
x|"
x{"
xz"
xy"
xx"
xw"
xv"
xu"
xt"
xs"
xr"
xq"
xp"
xo"
xn"
xm"
xl"
xk"
xj"
xi"
0n#
0k#
1&'
0%'
0$'
0#'
0"'
0!'
0~&
0}&
1|&
1{&
0z&
0y&
0x&
0w&
0v&
0u&
0t&
1s&
0r&
1q&
1p&
1o&
1n&
1m&
1l&
0k&
0j&
0i&
0h&
0g&
0f&
0e&
0d&
0c&
08%
07%
06%
15%
04%
13%
02%
11%
10%
0/%
0.%
0-%
0,%
0+%
1*%
0)%
1(%
1'%
1&%
0%%
0$%
0#%
1"%
0!%
0~$
1}$
1|$
1{$
1z$
1y$
1x$
1w$
1v$
1u$
0l#
1%+
0$+
0#+
0"+
0!+
0~*
0}*
0|*
1{*
1z*
0y*
0x*
0w*
0v*
0u*
0t*
0s*
1r*
0q*
1p*
1o*
1n*
1m*
1l*
1k*
0j*
0i*
0h*
0g*
0f*
0e*
0d*
0c*
0b*
07)
06)
05)
14)
03)
12)
01)
10)
1/)
0.)
0-)
0,)
0+)
0*)
1))
0()
1')
1&)
1%)
0$)
0#)
0")
1!)
0~(
0}(
1|(
1{(
1z(
1y(
1x(
1w(
1v(
1u(
1t(
0m#
0H'
0G'
0F'
1E'
0D'
1C'
0B'
1A'
1@'
0?'
0>'
0='
0<'
0;'
1:'
09'
18'
17'
16'
05'
04'
03'
12'
01'
00'
1/'
1.'
1-'
1,'
1+'
1*'
1)'
1('
1''
1j'
1i'
1h'
1g'
0f'
0e'
1d'
0c'
0b'
0a'
0`'
0_'
0^'
0]'
0\'
1['
0Z'
0Y'
1X'
0W'
1V'
0U'
0T'
1S'
0R'
1Q'
0P'
1O'
1N'
1M'
1L'
1K'
1J'
1I'
1Z%
0Y%
0X%
0W%
0V%
0U%
0T%
0S%
1R%
1Q%
0P%
0O%
0N%
0M%
0L%
0K%
0J%
1I%
0H%
1G%
1F%
1E%
1D%
1C%
1B%
0A%
0@%
0?%
0>%
0=%
0<%
0;%
0:%
09%
0G+
0F+
0E+
1D+
0C+
1B+
0A+
1@+
1?+
0>+
0=+
0<+
0;+
0:+
19+
08+
17+
16+
15+
04+
03+
02+
11+
00+
0/+
1.+
1-+
1,+
1++
1*+
1)+
1(+
1'+
1&+
1i+
1h+
1g+
1f+
0e+
0d+
1c+
0b+
0a+
0`+
0_+
0^+
0]+
0\+
0[+
1Z+
0Y+
0X+
1W+
0V+
1U+
0T+
0S+
1R+
0Q+
1P+
0O+
1N+
1M+
1L+
1K+
1J+
1I+
1H+
1Y)
0X)
0W)
0V)
0U)
0T)
0S)
0R)
1Q)
1P)
0O)
0N)
0M)
0L)
0K)
0J)
0I)
1H)
0G)
1F)
1E)
1D)
1C)
1B)
1A)
0@)
0?)
0>)
0=)
0<)
0;)
0:)
09)
08)
1.(
1-(
1,(
1+(
0*(
0)(
1((
0'(
0&(
0%(
0$(
0#(
0"(
0!(
0~'
1}'
0|'
0{'
1z'
0y'
1x'
0w'
0v'
1u'
0t'
1s'
0r'
1q'
1p'
1o'
1n'
1m'
1l'
1k'
10(
1/(
1-,
1,,
1+,
1*,
0),
0(,
1',
0&,
0%,
0$,
0#,
0",
0!,
0~+
0}+
1|+
0{+
0z+
1y+
0x+
1w+
0v+
0u+
1t+
0s+
1r+
0q+
1p+
1o+
1n+
1m+
1l+
1k+
1j+
1/,
1.,
1J#
1I#
1H#
1G#
0F#
0E#
1D#
0C#
0B#
0A#
0@#
0?#
0>#
0=#
0<#
1;#
0:#
09#
18#
07#
16#
05#
04#
13#
02#
11#
00#
1/#
1.#
1-#
1,#
1+#
0-(
0,(
0+(
0((
1&(
1%(
0}'
1{'
0z'
1y'
1w'
1v'
1t'
0s'
0q'
0p'
0o'
0n'
0m'
0l'
0k'
1H"
1G"
1F"
1E"
0D"
0C"
1B"
0A"
0@"
0?"
0>"
0="
0<"
0;"
0:"
19"
08"
07"
16"
05"
14"
03"
02"
11"
00"
1/"
0."
1-"
1,"
1+"
1*"
1)"
0,,
0+,
0*,
0',
1%,
1$,
0|+
1z+
0y+
1x+
1v+
1u+
1s+
0r+
0p+
0o+
0n+
0m+
0l+
0k+
0j+
0I#
0H#
0G#
0D#
1B#
1A#
0;#
19#
08#
17#
15#
14#
12#
01#
0/#
0.#
0-#
0,#
0+#
0G"
0F"
0E"
0B"
1@"
1?"
09"
17"
06"
15"
13"
12"
10"
0/"
0-"
0,"
0+"
0*"
0)"
#180
0C!
#185
1C!
1b&
1Z&
1Y&
1Q&
1O&
1N&
1M&
1L&
1K&
1J&
0R$
0t$
1s$
0l$
1j$
0c$
1b$
0a$
1[$
1a*
1Y*
1X*
1P*
1N*
1M*
1L*
1K*
1J*
1I*
0Q(
1J(
0H(
1A(
0@(
1?(
09(
0s(
1r(
0k(
1i(
0b(
1a(
0`(
1Z(
1("
0'"
0&"
0%"
0$"
0#"
0""
0!"
1~!
1}!
0|!
0{!
0z!
0y!
0x!
0w!
0v!
1u!
0t!
1s!
1r!
1q!
1p!
1o!
1n!
0m!
0l!
0k!
0j!
0i!
0h!
0g!
1*#
0)#
0(#
0'#
0&#
0%#
0$#
0##
1"#
1!#
0~"
0}"
0|"
0{"
0z"
0y"
0x"
1w"
0v"
1u"
1t"
1s"
1r"
1q"
1p"
0o"
0n"
0m"
0l"
0k"
0j"
0i"
18%
00%
1.%
0'%
0&%
0}$
0|$
0{$
0z$
0y$
0x$
0w$
0v$
0u$
0Z%
1Y%
0R%
1P%
0I%
1H%
0G%
1A%
17)
0/)
1-)
0&)
0%)
0|(
0{(
0z(
0y(
0x(
0w(
0v(
0u(
0t(
0Y)
1X)
0Q)
1O)
0H)
1G)
0F)
1@)
1Z%
0Y%
1W%
1U%
1S%
0Q%
1L%
1J%
0H%
0F%
0E%
0C%
0B%
0A%
1Y)
0X)
1V)
1T)
1R)
0P)
1K)
1I)
0G)
0E)
0D)
0B)
0A)
0@)
#190
0C!
#195
1C!
11(
1K(
0I(
1B(
0A(
1@(
0:(
1o(
1m(
1k(
0j(
0i(
1h(
1d(
1b(
0a(
0_(
0^(
0](
0[(
0Z(
1k#
13)
11)
1/)
1.)
1()
1&)
1%)
1$)
1~(
1{(
1z(
1y(
1x(
1w(
1v(
1u(
1t(
0Y)
1X)
0V)
1U)
0T)
1S)
0R)
1Q)
0O)
1N)
0K)
1J)
0I)
1H)
0C)
1B)
#200
0C!
#205
1C!
1L(
0J(
1C(
0B(
1A(
0;(
0r(
1q(
0o(
1n(
0m(
1l(
0k(
1j(
0h(
1g(
0d(
1c(
0b(
1a(
0\(
1[(
16)
03)
02)
00)
0.)
0-)
1+)
0()
0')
0%)
0$)
1#)
0~(
1}(
0X)
1W)
0U)
1T)
0S)
1R)
0Q)
1P)
0N)
1M)
0J)
1I)
0H)
1G)
0B)
1A)
#210
0C!
#215
1C!
1M(
0K(
1D(
0C(
1B(
0<(
0q(
1p(
0n(
1m(
0l(
1k(
0j(
1i(
0g(
1f(
0c(
1b(
0a(
1`(
0[(
1Z(
15)
12)
10)
1.)
0+)
1*)
1')
1%)
0}(
1|(
0W)
1V)
0T)
1S)
0R)
1Q)
0P)
1O)
0M)
1L)
0I)
1H)
0G)
1F)
0A)
1@)
#220
0C!
#225
1C!
1N(
0L(
1E(
0D(
1C(
0=(
0p(
1o(
0m(
1l(
0k(
1j(
0i(
1h(
0f(
1e(
0b(
1a(
0`(
1_(
0Z(
1Y(
04)
13)
01)
00)
0.)
1,)
0*)
0))
1()
0&)
0%)
0#)
1")
0|(
0{(
0z(
0y(
0x(
0w(
0v(
0u(
0t(
0V)
1U)
0S)
1R)
0Q)
1P)
0O)
1N)
0L)
1K)
0H)
1G)
0F)
1E)
0@)
1?)
1Y)
1X)
1W)
1T)
0R)
1Q)
0P)
0K)
1J)
1I)
0G)
0E)
1D)
1C)
0?)
#230
0C!
#235
1C!
1O(
0M(
1F(
0E(
1D(
0>(
1r(
1q(
1p(
0o(
1n(
1m(
0l(
0h(
1g(
0e(
1c(
1b(
0a(
0_(
1](
1\(
0Y(
06)
02)
0,)
1+)
1))
0()
0')
1#)
0")
0!)
1}(
1{(
1z(
1y(
1x(
1w(
1v(
1u(
1t(
0Y)
1V)
0U)
1S)
0Q)
1P)
0N)
1M)
0J)
1H)
0D)
1B)
#240
0C!
#245
1C!
1P(
0N(
1G(
0F(
1E(
0?(
0r(
1o(
0n(
1l(
0j(
1i(
0g(
1f(
0c(
1a(
0](
1[(
16)
05)
03)
10)
1.)
0+)
1*)
1')
1&)
1!)
1~(
0X)
1U)
0T)
1R)
0P)
1O)
0M)
1L)
0I)
1G)
0C)
1A)
#250
0C!
#255
1C!
1Q(
0O(
1H(
0G(
1F(
0@(
0q(
1n(
0m(
1k(
0i(
1h(
0f(
1e(
0b(
1`(
0\(
1Z(
1"+
1!+
1~*
1|*
0{*
0z*
1y*
1x*
1u*
1q*
0p*
0o*
0n*
0m*
0l*
1i*
15)
14)
13)
11)
00)
0/)
0.)
1,)
0*)
0))
1()
0&)
1$)
0~(
1|(
0W)
1T)
0S)
1Q)
0O)
1N)
0L)
1K)
0H)
1F)
0B)
1@)
0D+
1A+
0@+
1>+
1<+
09+
18+
05+
13+
1/+
0.+
0-+
0,+
0++
0*+
0)+
0(+
0'+
0&+
0f+
0c+
1`+
1^+
1[+
0W+
0U+
1T+
1Q+
0P+
1O+
1*,
1),
1(,
1&,
0%,
0$,
1#,
1",
1}+
1y+
0x+
0w+
0v+
0u+
0t+
1q+
0/,
1E"
1D"
1C"
1A"
0@"
0?"
1>"
1="
1:"
16"
05"
04"
03"
02"
01"
1."
0-,
0*,
0),
1',
0&,
1%,
1$,
0#,
0}+
1|+
1{+
0y+
1w+
1u+
0q+
0H"
0E"
0D"
1B"
0A"
1@"
1?"
0>"
0:"
19"
18"
06"
14"
12"
0."
#260
0C!
#265
1C!
0a*
1\*
1[*
1V*
1R*
1Q*
0N*
0L*
0J*
0P(
1I(
0H(
1G(
0A(
0p(
1m(
0l(
1j(
0h(
1g(
0e(
1d(
0a(
1_(
0[(
1Y(
0("
1#"
1""
1{!
1w!
1v!
0s!
0q!
0o!
0%+
0"+
0~*
1}*
1z*
1w*
0u*
0r*
1p*
1n*
1m*
1j*
04)
01)
1.)
0,)
1+)
1))
1%)
0$)
0#)
1")
0}(
0{(
0z(
0y(
0x(
0w(
0v(
0u(
0t(
0V)
1S)
0R)
1P)
0N)
1M)
0K)
1J)
0G)
1E)
0A)
1?)
1G+
1F+
1E+
1C+
0>+
1=+
1;+
19+
08+
06+
14+
12+
01+
10+
1.+
0i+
1f+
1e+
0`+
1_+
1]+
0[+
1X+
1W+
0T+
0R+
0Q+
0O+
0N+
0M+
0L+
0K+
0J+
0I+
0H+
1Y)
1X)
1W)
0T)
0S)
0Q)
1K)
1I)
1G)
0F)
0E)
1D)
1C)
0?)
1-,
1,,
1+,
1),
0$,
1#,
1!,
1}+
0|+
0z+
1x+
1v+
0u+
1t+
1r+
0.,
1H"
1G"
1F"
1D"
0?"
1>"
1<"
1:"
09"
07"
15"
13"
02"
11"
1/"
0-,
1*,
0(,
0',
0%,
0}+
1|+
0{+
1z+
1y+
0x+
0w+
0v+
0t+
0s+
0r+
0H"
1E"
0C"
0B"
0@"
0:"
19"
08"
17"
16"
05"
04"
03"
01"
00"
0/"
#270
0C!
#275
1C!
1`*
1_*
1^*
1]*
0\*
0[*
0Y*
0X*
1W*
1U*
0Q*
1O*
0M*
0K*
0I*
0Q(
1J(
0I(
1H(
0B(
1r(
1q(
1p(
0o(
0m(
0k(
0j(
1i(
0g(
1f(
1c(
1b(
0_(
1](
1\(
0Z(
1'"
1&"
1%"
1$"
0#"
0""
0~!
0}!
1|!
1z!
0v!
1t!
0r!
0p!
0n!
1$+
1#+
1"+
0}*
0|*
0z*
1t*
1r*
0p*
0n*
0m*
0k*
0j*
0i*
06)
11)
10)
0+)
1*)
0')
0%)
1$)
1#)
0")
0!)
1}(
0|(
0F+
0C+
0B+
1@+
0?+
1>+
0=+
18+
16+
04+
02+
11+
00+
0/+
0.+
1-+
1,+
1++
1*+
1)+
1(+
1'+
1&+
0h+
0e+
1d+
1c+
1a+
0_+
0Z+
1Y+
0X+
0W+
1T+
1R+
1N+
1M+
1L+
1K+
1J+
1I+
1H+
0X)
1S)
1R)
0M)
1L)
0I)
0G)
1F)
1E)
0D)
0C)
1A)
0@)
0,,
0),
1(,
1',
1%,
0#,
0|+
1{+
0z+
0y+
1v+
1t+
1p+
1o+
1n+
1m+
1l+
1k+
1j+
1/,
1.,
0G"
0D"
1C"
1B"
1@"
0>"
09"
18"
07"
06"
13"
11"
1-"
1,"
1+"
1*"
1)"
1,,
1),
0(,
0',
0%,
1#,
1|+
0{+
1z+
1y+
0v+
0t+
0p+
0o+
0n+
0m+
0l+
0k+
0j+
1G"
1D"
0C"
0B"
0@"
1>"
19"
08"
17"
16"
03"
01"
0-"
0,"
0+"
0*"
0)"
#280
0C!
#285
1C!
1K(
0J(
1I(
0C(
0q(
1l(
1k(
0f(
1e(
0b(
0`(
1_(
1^(
0](
0\(
1Z(
0Y(
05)
00)
0.)
1-)
0*)
0))
0()
1')
1&)
1%)
1")
1!)
0}(
1|(
1{(
1z(
1y(
1x(
1w(
1v(
1u(
1t(
0Y)
1X)
0W)
1V)
0U)
1T)
0S)
1Q)
0P)
1O)
0L)
1I)
0F)
1D)
0A)
1@)
#290
0C!
#295
1C!
1L(
0K(
1J(
0D(
0r(
1q(
0p(
1o(
0n(
1m(
0l(
1j(
0i(
1h(
0e(
1b(
0_(
1](
0Z(
1Y(
16)
14)
12)
10)
1/)
0-)
1,)
1))
1()
0')
0&)
0%)
0$)
0!)
1~(
0|(
0{(
0z(
0y(
0x(
0w(
0v(
0u(
0t(
0X)
1W)
0V)
1U)
0T)
1S)
0R)
1P)
0O)
1N)
0K)
1H)
0E)
1C)
0@)
1?)
1Y)
1X)
0W)
1V)
1T)
1R)
0P)
1K)
0I)
0H)
1E)
0C)
1B)
0?)
#300
0C!
#305
1C!
1M(
0L(
1K(
0E(
1r(
1n(
1l(
0h(
1g(
0b(
1[(
0Y(
06)
15)
02)
01)
0/)
1.)
0,)
1+)
1&)
1%)
1$)
0#)
1}(
1{(
1z(
1y(
1x(
1w(
1v(
1u(
1t(
0Y)
1W)
0V)
1P)
0N)
1M)
0K)
1I)
0E)
1C)
0B)
1A)
#310
0C!
#315
1C!
1N(
0M(
1L(
0F(
0r(
1p(
0o(
1i(
0g(
1f(
0d(
1b(
0^(
1\(
0[(
1Z(
16)
05)
04)
1-)
0+)
1*)
0()
0&)
0%)
0$)
1#)
0")
0~(
1|(
0X)
1V)
0U)
1O)
0M)
1L)
0J)
1H)
0D)
1B)
0A)
1@)
#320
0C!
#325
1C!
1O(
0N(
1M(
0G(
0q(
1o(
0n(
1h(
0f(
1e(
0c(
1a(
0](
1[(
0Z(
1Y(
15)
14)
12)
11)
00)
1,)
0*)
0))
1()
1')
1&)
1!)
1~(
0|(
0{(
0z(
0y(
0x(
0w(
0v(
0u(
0t(
0W)
1U)
0T)
1N)
0L)
1K)
0I)
1G)
0C)
1A)
0@)
1?)
1Y)
1X)
1W)
1T)
0R)
0Q)
0K)
1J)
1I)
0G)
1E)
1C)
0?)
#330
0C!
#335
1C!
1P(
0O(
1N(
0H(
1r(
1q(
1n(
0k(
0j(
1g(
0e(
1c(
1^(
1Z(
0Y(
06)
04)
03)
01)
10)
1/)
0-)
1+)
1))
0()
0')
0&)
1%)
1")
1|(
1{(
1z(
1y(
1x(
1w(
1v(
1u(
1t(
0Y)
1R)
0P)
1M)
0J)
1G)
0E)
1D)
0C)
1@)
#340
0C!
#345
1C!
1Q(
0P(
1O(
0I(
0r(
1k(
0i(
1f(
0c(
1`(
0^(
1](
0\(
1Y(
0#+
1z*
0x*
1u*
0r*
1o*
1m*
1k*
1j*
1i*
16)
05)
0/)
0.)
1*)
1')
1&)
0%)
1$)
0")
0!)
0{(
0z(
0y(
0x(
0w(
0v(
0u(
0t(
0X)
1Q)
0O)
1L)
0I)
1F)
0D)
1C)
0B)
1?)
0E+
0>+
1=+
0<+
09+
08+
07+
03+
12+
01+
10+
1/+
1.+
0-+
0,+
0++
0*+
0)+
0(+
0'+
0&+
0g+
1`+
0^+
1[+
1X+
1W+
1V+
1S+
1Q+
1P+
1O+
0+,
1$,
0",
1}+
0z+
1w+
1u+
1s+
1r+
1q+
1Y)
1X)
0W)
0V)
0U)
0S)
0Q)
1K)
1I)
0G)
1E)
0C)
1B)
0?)
0/,
0F"
1?"
0="
1:"
07"
14"
12"
10"
1/"
1."
1-,
0,,
0*,
0),
1',
1&,
0$,
0}+
0|+
1z+
0y+
0w+
1v+
0u+
1t+
0q+
1H"
0G"
0E"
0D"
1B"
1A"
0?"
0:"
09"
17"
06"
04"
13"
02"
11"
0."
#350
0C!
#355
1C!
1a*
0`*
0_*
0^*
0]*
1[*
1Z*
0V*
0R*
0O*
1L*
1J*
1I*
1H*
0Q(
1P(
0J(
1r(
0p(
0o(
0n(
0l(
0h(
1e(
1d(
0`(
1_(
1^(
0](
1("
0'"
0&"
0%"
0$"
1""
1!"
0{!
0w!
0t!
1q!
1o!
1n!
1m!
1%+
0$+
0"+
0!+
1}*
1|*
0z*
0u*
0t*
1r*
0q*
0o*
1n*
0m*
1l*
0i*
06)
15)
14)
11)
1/)
1.)
1-)
0+)
0))
0')
0&)
1%)
0$)
0#)
0G+
1D+
1B+
0@+
1?+
1>+
0=+
19+
17+
15+
14+
11+
1-+
1,+
1++
1*+
1)+
1(+
1'+
1&+
1i+
1h+
1g+
0d+
0c+
0a+
0[+
1Z+
0Y+
0X+
1U+
0S+
0R+
0Q+
0P+
0X)
1W)
1V)
1S)
1Q)
1P)
1O)
0M)
0K)
0I)
0H)
1G)
0F)
0E)
0-,
1*,
1(,
0&,
1%,
1$,
0#,
1}+
1{+
1y+
1x+
1u+
1q+
1p+
1o+
1n+
1m+
1l+
1k+
1j+
1/,
0H"
1E"
1C"
0A"
1@"
1?"
0>"
1:"
18"
16"
15"
12"
1."
1-"
1,"
1+"
1*"
1)"
1-,
0*,
0(,
1&,
0%,
0$,
1#,
0}+
0{+
0y+
0x+
0u+
0q+
0p+
0o+
0n+
0m+
0l+
0k+
0j+
1H"
0E"
0C"
1A"
0@"
0?"
1>"
0:"
08"
06"
05"
02"
0."
0-"
0,"
0+"
0*"
0)"
#360
0C!
#365
1C!
1Q(
0K(
0q(
1p(
1o(
1l(
1j(
1i(
1h(
0f(
0d(
0b(
0a(
1`(
0_(
0^(
1$+
1"+
1!+
0}*
1v*
1u*
1p*
0k*
1h*
05)
04)
02)
01)
0/)
1+)
0*)
1()
1')
1#)
1!)
0~(
1F+
0D+
0B+
1:+
09+
18+
04+
13+
0/+
0,+
0++
0*+
0)+
0(+
0'+
0&+
0h+
0g+
1d+
1c+
1b+
1a+
0`+
1\+
1[+
0V+
0U+
0T+
1S+
1Q+
1P+
0O+
0N+
0M+
0L+
0K+
0J+
0I+
0H+
1,,
1*,
1),
0',
1~+
1}+
1x+
0s+
1p+
0W)
0V)
0T)
0S)
0Q)
1M)
0L)
1J)
1I)
1E)
1C)
0B)
0/,
0.,
1G"
1E"
1D"
0B"
1;"
1:"
15"
00"
1-"
0,,
0),
1(,
1',
1%,
0#,
1|+
0z+
1y+
0x+
0v+
1u+
0t+
1s+
0p+
0G"
0D"
1C"
1B"
1@"
0>"
19"
07"
16"
05"
03"
12"
01"
10"
0-"
#370
0C!
#375
1C!
1^*
1\*
1Y*
0W*
1T*
1S*
1R*
0P*
1O*
0L*
1K*
0J*
0L(
0p(
0o(
0m(
0l(
0j(
1f(
0e(
1c(
1b(
1^(
1\(
0[(
1%"
1#"
1~!
0|!
1y!
1x!
1w!
0u!
1t!
0q!
1p!
0o!
0!+
1~*
1}*
1z*
1x*
0w*
0u*
0r*
0p*
1o*
1m*
1k*
0j*
14)
12)
1/)
0-)
1*)
1))
0()
0')
0%)
1$)
1")
1~(
0}(
1C+
0A+
1@+
0>+
1=+
1<+
0;+
19+
08+
06+
14+
01+
00+
1e+
0c+
0b+
0a+
1_+
1^+
0]+
0[+
1X+
0W+
1V+
0S+
1R+
0Q+
1V)
1T)
1Q)
0O)
1L)
1K)
0J)
0I)
0G)
1F)
1D)
1B)
0A)
1),
0',
0&,
0%,
1#,
1",
0!,
0}+
1z+
0y+
1x+
0u+
1t+
0s+
1D"
0B"
0A"
0@"
1>"
1="
0<"
0:"
17"
06"
15"
02"
11"
00"
#380
0C!
#385
1C!
1]*
0[*
0Z*
0Y*
1W*
1V*
0U*
0S*
1P*
0O*
1N*
0K*
1J*
0I*
0M(
1o(
1m(
1j(
0h(
1e(
1d(
0c(
0b(
0`(
1_(
1](
1[(
0Z(
1$"
0""
0!"
0~!
1|!
1{!
0z!
0x!
1u!
0t!
1s!
0p!
1o!
0n!
0~*
0}*
1{*
0y*
0x*
1t*
1s*
1r*
1p*
0l*
0k*
13)
11)
0.)
1-)
0,)
0))
1&)
1%)
0!)
0~(
1B+
0@+
0?+
1>+
0=+
0<+
18+
07+
05+
03+
02+
11+
10+
0.+
0d+
1c+
1b+
0_+
0^+
0Z+
1W+
0V+
1U+
0R+
1Q+
0P+
1U)
1S)
0P)
1O)
0N)
0K)
1H)
1G)
0C)
0B)
0(,
1',
1&,
0#,
0",
0|+
1y+
0x+
1w+
0t+
1s+
0r+
0C"
1B"
1A"
0>"
0="
09"
16"
05"
14"
01"
10"
0/"
#390
0C!
#395
1C!
0\*
1[*
1Z*
0W*
0V*
0R*
1O*
0N*
1M*
0J*
1I*
0H*
0N(
1n(
1l(
0i(
1h(
0g(
0d(
1a(
1`(
0\(
0[(
0#"
1""
1!"
0|!
0{!
0w!
1t!
0s!
1r!
0o!
1n!
0m!
1}*
0{*
0z*
1y*
1x*
0v*
0s*
0p*
0n*
0m*
1l*
1k*
1i*
0h*
02)
01)
0/)
1.)
0-)
1,)
0+)
1()
1')
0&)
0%)
0#)
0")
1!)
1~(
0|(
1A+
1?+
1<+
0:+
17+
16+
15+
13+
1/+
0-+
0c+
0b+
1`+
1^+
0\+
1Y+
0X+
1V+
0U+
1T+
0Q+
1P+
1O+
1N+
1M+
1L+
1K+
1J+
1I+
1H+
0T)
0S)
0Q)
1P)
0O)
1N)
0M)
1J)
1I)
0H)
0G)
0E)
0D)
1C)
1B)
0@)
0',
0&,
1$,
1",
0~+
1{+
0z+
1x+
0w+
1v+
0s+
1r+
1q+
1p+
1o+
1n+
1m+
1l+
1k+
1j+
1.,
0B"
0A"
1?"
1="
0;"
18"
07"
15"
04"
13"
00"
1/"
1."
1-"
1,"
1+"
1*"
1)"
0-,
1,,
0*,
1(,
1',
1%,
1}+
1|+
1z+
1w+
0v+
1u+
1t+
1s+
0r+
0q+
0p+
0o+
0n+
0m+
0l+
0k+
0j+
0H"
1G"
0E"
1C"
1B"
1@"
1:"
19"
17"
14"
03"
12"
11"
10"
0/"
0."
0-"
0,"
0+"
0*"
0)"
#400
0C!
#405
1C!
0a*
1`*
0^*
1\*
0Z*
1Y*
1X*
1V*
0T*
1S*
1R*
1Q*
1N*
1K*
1J*
0O(
0m(
0l(
0j(
1i(
0h(
1g(
0f(
1c(
1b(
0a(
0`(
0^(
0](
1\(
1[(
0Y(
0("
1'"
0%"
1#"
0!"
1~!
1}!
1{!
0y!
1x!
1w!
1v!
1s!
1p!
1o!
0%+
0$+
1#+
0"+
1~*
0}*
0y*
0x*
1v*
0t*
1s*
1n*
1m*
0l*
1j*
0i*
11)
1/)
0,)
1+)
0*)
0')
0$)
1")
1}(
1{(
1z(
1y(
1x(
1w(
1v(
1u(
1t(
1G+
1D+
0C+
0B+
1=+
1;+
08+
07+
06+
05+
04+
03+
1.+
1-+
1,+
1++
1*+
1)+
1(+
1'+
1&+
0i+
1h+
0f+
1d+
1c+
1b+
1a+
0`+
1_+
1]+
1Z+
0T+
0P+
0Y)
1X)
0V)
1T)
0R)
1Q)
0P)
1O)
0N)
1M)
0L)
1K)
0J)
1H)
0F)
1E)
0C)
1A)
1-,
1*,
0),
0(,
1#,
1!,
0|+
0{+
0z+
0y+
0x+
0w+
1r+
1q+
1p+
1o+
1n+
1m+
1l+
1k+
1j+
1/,
1H"
1E"
0D"
0C"
1>"
1<"
09"
08"
07"
06"
05"
04"
1/"
1."
1-"
1,"
1+"
1*"
1)"
0-,
0,,
1+,
0*,
1(,
0',
1&,
0%,
0$,
0#,
0",
0!,
1~+
0}+
1{+
1z+
1w+
1v+
0t+
0q+
0p+
0o+
0n+
0m+
0l+
0k+
0j+
0H"
0G"
1F"
0E"
1C"
0B"
1A"
0@"
0?"
0>"
0="
0<"
1;"
0:"
18"
17"
14"
13"
01"
0."
0-"
0,"
0+"
0*"
0)"
#410
0C!
#415
1C!
0`*
1_*
0]*
0[*
1Z*
0Y*
0X*
0V*
1T*
0S*
0R*
0O*
0N*
1L*
0J*
1H*
0P(
0r(
1q(
0o(
1m(
0k(
1j(
0i(
1h(
0g(
1f(
0e(
1d(
0c(
1a(
0_(
1^(
0\(
1Z(
0'"
1&"
0$"
0""
1!"
0~!
0}!
0{!
1y!
0x!
0w!
0t!
0s!
1q!
0o!
1m!
0#+
1"+
0~*
0|*
1{*
1z*
1x*
0v*
1u*
1t*
0r*
1p*
0n*
0m*
1l*
0k*
1i*
16)
03)
01)
00)
0.)
1,)
0+)
1*)
1))
1')
1&)
1#)
0~(
1|(
0X)
1W)
0U)
1S)
0Q)
1P)
0O)
1N)
0M)
1L)
0K)
1J)
0I)
1G)
0E)
1D)
0B)
1@)
1E+
1B+
0A+
1@+
0>+
0=+
0;+
09+
17+
16+
15+
12+
0/+
0-+
0,+
0++
0*+
0)+
0(+
0'+
0&+
1g+
0d+
0b+
0a+
0_+
0]+
1[+
0Z+
0Y+
0V+
1U+
1T+
1Q+
1P+
0+,
1*,
0(,
0&,
1%,
1$,
1",
0~+
1}+
1|+
0z+
1x+
0v+
0u+
1t+
0s+
1q+
0/,
0F"
1E"
0C"
0A"
1@"
1?"
1="
0;"
1:"
19"
07"
15"
03"
02"
11"
00"
1."
1-,
1,,
1+,
1(,
1&,
0$,
0}+
0|+
1z+
1y+
0x+
0w+
1v+
1u+
0q+
1H"
1G"
1F"
1C"
1A"
0?"
0:"
09"
17"
16"
05"
04"
13"
12"
0."
#420
0C!
#425
1C!
1a*
1`*
1^*
1Y*
1V*
0T*
1O*
0M*
1J*
0I*
0Q(
0q(
1p(
0n(
1l(
0j(
1i(
0h(
1g(
0f(
1e(
0d(
1c(
0b(
1`(
0^(
1](
0[(
1Y(
1("
1'"
1%"
1~!
1{!
0y!
1t!
0r!
1o!
0n!
1%+
1$+
1#+
1~*
1|*
0z*
0u*
0t*
1r*
1q*
0p*
0o*
1n*
1m*
0i*
15)
12)
11)
1.)
0,)
1+)
0*)
0))
0')
1$)
0")
0!)
1~(
0}(
0{(
0z(
0y(
0x(
0w(
0v(
0u(
0t(
0W)
1V)
0T)
1R)
0P)
1O)
0N)
1M)
0L)
1K)
0J)
1I)
0H)
1F)
0D)
1C)
0A)
1?)
0G+
0D+
1C+
0B+
1A+
0@+
0?+
19+
07+
06+
13+
01+
00+
1/+
1-+
1,+
1++
1*+
1)+
1(+
1'+
1&+
1i+
0h+
1f+
1d+
1b+
1`+
1_+
0^+
0[+
1Z+
1Y+
0W+
0U+
0T+
1R+
0O+
1Y)
1X)
1W)
1T)
0R)
1Q)
1P)
0O)
0K)
1J)
0I)
1H)
0G)
1E)
0C)
1B)
0?)
0-,
0*,
1),
0(,
1',
0&,
0%,
1}+
0{+
0z+
1w+
0u+
0t+
1s+
1q+
1p+
1o+
1n+
1m+
1l+
1k+
1j+
1/,
0H"
0E"
1D"
0C"
1B"
0A"
0@"
1:"
08"
07"
14"
02"
01"
10"
1."
1-"
1,"
1+"
1*"
1)"
1-,
1*,
0),
1(,
0',
1&,
1%,
0}+
1{+
1z+
0w+
1u+
1t+
0s+
0q+
0p+
0o+
0n+
0m+
0l+
0k+
0j+
1H"
1E"
0D"
1C"
0B"
1A"
1@"
0:"
18"
17"
04"
12"
11"
00"
0."
0-"
0,"
0+"
0*"
0)"
#430
0C!
#435
1C!
10,
1l#
1m#
#440
0C!
#445
1C!
1p#
1B!
0A!
0@!
0?!
0>!
0=!
0<!
0;!
1:!
19!
08!
07!
06!
05!
04!
03!
02!
11!
00!
1/!
1.!
1-!
1,!
1+!
1*!
0)!
0(!
0'!
0&!
0%!
0$!
0#!
1F!
#450
0C!
#455
1C!
#460
0C!
#465
1C!
#470
0C!
#475
1C!
#480
0C!
#485
1C!
#490
0C!
#495
1C!
#500
0C!
#505
1C!
#510
0C!
#515
1C!
#520
0C!
#525
1C!
#530
0C!
#535
1C!
#540
0C!
#545
1C!
#550
0C!
#555
1C!
#560
0C!
#565
1C!
#570
0C!
#575
1C!
#580
0C!
#585
1C!
#590
0C!
#595
1C!
#600
0C!
#605
1C!
#610
0C!
#615
1C!
#620
0C!
#625
1C!
#630
0C!
#635
1C!
#640
0C!
#645
1C!
#650
0C!
#655
1C!
#660
0C!
#665
1C!
#670
0C!
#675
1C!
#680
0C!
#685
1C!
#690
0C!
#695
1C!
#700
0C!
#705
1C!
#710
0C!
#715
1C!
#720
0C!
#725
1C!
#730
0C!
#735
1C!
#740
0C!
#745
1C!
#750
0C!
#755
1C!
#760
0C!
#765
1C!
#770
0C!
#775
1C!
#780
0C!
#785
1C!
#790
0C!
#795
1C!
#800
0C!
#805
1C!
#810
0C!
#815
1C!
#820
0C!
#825
1C!
#830
0C!
#835
1C!
#840
0C!
#845
1C!
#850
0C!
#855
1C!
#860
0C!
#865
1C!
#870
0C!
#875
1C!
#880
0C!
#885
1C!
#890
0C!
#895
1C!
#900
0C!
#905
1C!
#910
0C!
#915
1C!
#920
0C!
#925
1C!
#930
0C!
#935
1C!
#940
0C!
#945
1C!
#950
0C!
#955
1C!
#960
0C!
#965
1C!
#970
0C!
#975
1C!
#980
0C!
#985
1C!
#990
0C!
#995
1C!
#1000
0C!
